(kicad_sch
	(version 20231120)
	(generator "eeschema")
	(generator_version "8.0")
	(uuid "17d5ef97-4425-4330-b5bd-ab9968c93882")
	(paper "A4")
	(lib_symbols
		(symbol "74xx:74HC374"
			(exclude_from_sim no)
			(in_bom yes)
			(on_board yes)
			(property "Reference" "U"
				(at -7.62 16.51 0)
				(effects
					(font
						(size 1.27 1.27)
					)
				)
			)
			(property "Value" "74HC374"
				(at -7.62 -16.51 0)
				(effects
					(font
						(size 1.27 1.27)
					)
				)
			)
			(property "Footprint" ""
				(at 0 0 0)
				(effects
					(font
						(size 1.27 1.27)
					)
					(hide yes)
				)
			)
			(property "Datasheet" "https://www.ti.com/lit/ds/symlink/cd74hct374.pdf"
				(at 0 0 0)
				(effects
					(font
						(size 1.27 1.27)
					)
					(hide yes)
				)
			)
			(property "Description" "8-bit Register, 3-state outputs"
				(at 0 0 0)
				(effects
					(font
						(size 1.27 1.27)
					)
					(hide yes)
				)
			)
			(property "ki_keywords" "HCMOS DFF DFF8 REG 3State"
				(at 0 0 0)
				(effects
					(font
						(size 1.27 1.27)
					)
					(hide yes)
				)
			)
			(property "ki_fp_filters" "DIP?20* SOIC?20* SO?20*"
				(at 0 0 0)
				(effects
					(font
						(size 1.27 1.27)
					)
					(hide yes)
				)
			)
			(symbol "74HC374_1_0"
				(pin input inverted
					(at -12.7 -12.7 0)
					(length 5.08)
					(name "OE"
						(effects
							(font
								(size 1.27 1.27)
							)
						)
					)
					(number "1"
						(effects
							(font
								(size 1.27 1.27)
							)
						)
					)
				)
				(pin power_in line
					(at 0 -20.32 90)
					(length 5.08)
					(name "GND"
						(effects
							(font
								(size 1.27 1.27)
							)
						)
					)
					(number "10"
						(effects
							(font
								(size 1.27 1.27)
							)
						)
					)
				)
				(pin input clock
					(at -12.7 -10.16 0)
					(length 5.08)
					(name "Cp"
						(effects
							(font
								(size 1.27 1.27)
							)
						)
					)
					(number "11"
						(effects
							(font
								(size 1.27 1.27)
							)
						)
					)
				)
				(pin tri_state line
					(at 12.7 2.54 180)
					(length 5.08)
					(name "O4"
						(effects
							(font
								(size 1.27 1.27)
							)
						)
					)
					(number "12"
						(effects
							(font
								(size 1.27 1.27)
							)
						)
					)
				)
				(pin input line
					(at -12.7 2.54 0)
					(length 5.08)
					(name "D4"
						(effects
							(font
								(size 1.27 1.27)
							)
						)
					)
					(number "13"
						(effects
							(font
								(size 1.27 1.27)
							)
						)
					)
				)
				(pin input line
					(at -12.7 0 0)
					(length 5.08)
					(name "D5"
						(effects
							(font
								(size 1.27 1.27)
							)
						)
					)
					(number "14"
						(effects
							(font
								(size 1.27 1.27)
							)
						)
					)
				)
				(pin tri_state line
					(at 12.7 0 180)
					(length 5.08)
					(name "O5"
						(effects
							(font
								(size 1.27 1.27)
							)
						)
					)
					(number "15"
						(effects
							(font
								(size 1.27 1.27)
							)
						)
					)
				)
				(pin tri_state line
					(at 12.7 -2.54 180)
					(length 5.08)
					(name "O6"
						(effects
							(font
								(size 1.27 1.27)
							)
						)
					)
					(number "16"
						(effects
							(font
								(size 1.27 1.27)
							)
						)
					)
				)
				(pin input line
					(at -12.7 -2.54 0)
					(length 5.08)
					(name "D6"
						(effects
							(font
								(size 1.27 1.27)
							)
						)
					)
					(number "17"
						(effects
							(font
								(size 1.27 1.27)
							)
						)
					)
				)
				(pin input line
					(at -12.7 -5.08 0)
					(length 5.08)
					(name "D7"
						(effects
							(font
								(size 1.27 1.27)
							)
						)
					)
					(number "18"
						(effects
							(font
								(size 1.27 1.27)
							)
						)
					)
				)
				(pin tri_state line
					(at 12.7 -5.08 180)
					(length 5.08)
					(name "O7"
						(effects
							(font
								(size 1.27 1.27)
							)
						)
					)
					(number "19"
						(effects
							(font
								(size 1.27 1.27)
							)
						)
					)
				)
				(pin tri_state line
					(at 12.7 12.7 180)
					(length 5.08)
					(name "O0"
						(effects
							(font
								(size 1.27 1.27)
							)
						)
					)
					(number "2"
						(effects
							(font
								(size 1.27 1.27)
							)
						)
					)
				)
				(pin power_in line
					(at 0 20.32 270)
					(length 5.08)
					(name "VCC"
						(effects
							(font
								(size 1.27 1.27)
							)
						)
					)
					(number "20"
						(effects
							(font
								(size 1.27 1.27)
							)
						)
					)
				)
				(pin input line
					(at -12.7 12.7 0)
					(length 5.08)
					(name "D0"
						(effects
							(font
								(size 1.27 1.27)
							)
						)
					)
					(number "3"
						(effects
							(font
								(size 1.27 1.27)
							)
						)
					)
				)
				(pin input line
					(at -12.7 10.16 0)
					(length 5.08)
					(name "D1"
						(effects
							(font
								(size 1.27 1.27)
							)
						)
					)
					(number "4"
						(effects
							(font
								(size 1.27 1.27)
							)
						)
					)
				)
				(pin tri_state line
					(at 12.7 10.16 180)
					(length 5.08)
					(name "O1"
						(effects
							(font
								(size 1.27 1.27)
							)
						)
					)
					(number "5"
						(effects
							(font
								(size 1.27 1.27)
							)
						)
					)
				)
				(pin tri_state line
					(at 12.7 7.62 180)
					(length 5.08)
					(name "O2"
						(effects
							(font
								(size 1.27 1.27)
							)
						)
					)
					(number "6"
						(effects
							(font
								(size 1.27 1.27)
							)
						)
					)
				)
				(pin input line
					(at -12.7 7.62 0)
					(length 5.08)
					(name "D2"
						(effects
							(font
								(size 1.27 1.27)
							)
						)
					)
					(number "7"
						(effects
							(font
								(size 1.27 1.27)
							)
						)
					)
				)
				(pin input line
					(at -12.7 5.08 0)
					(length 5.08)
					(name "D3"
						(effects
							(font
								(size 1.27 1.27)
							)
						)
					)
					(number "8"
						(effects
							(font
								(size 1.27 1.27)
							)
						)
					)
				)
				(pin tri_state line
					(at 12.7 5.08 180)
					(length 5.08)
					(name "O3"
						(effects
							(font
								(size 1.27 1.27)
							)
						)
					)
					(number "9"
						(effects
							(font
								(size 1.27 1.27)
							)
						)
					)
				)
			)
			(symbol "74HC374_1_1"
				(rectangle
					(start -7.62 15.24)
					(end 7.62 -15.24)
					(stroke
						(width 0.254)
						(type default)
					)
					(fill
						(type background)
					)
				)
			)
		)
		(symbol "74xx:74LS541"
			(pin_names
				(offset 1.016)
			)
			(exclude_from_sim no)
			(in_bom yes)
			(on_board yes)
			(property "Reference" "U"
				(at -7.62 16.51 0)
				(effects
					(font
						(size 1.27 1.27)
					)
				)
			)
			(property "Value" "74LS541"
				(at -7.62 -16.51 0)
				(effects
					(font
						(size 1.27 1.27)
					)
				)
			)
			(property "Footprint" ""
				(at 0 0 0)
				(effects
					(font
						(size 1.27 1.27)
					)
					(hide yes)
				)
			)
			(property "Datasheet" "http://www.ti.com/lit/gpn/sn74LS541"
				(at 0 0 0)
				(effects
					(font
						(size 1.27 1.27)
					)
					(hide yes)
				)
			)
			(property "Description" "8-bit Buffer/Line Driver 3-state outputs"
				(at 0 0 0)
				(effects
					(font
						(size 1.27 1.27)
					)
					(hide yes)
				)
			)
			(property "ki_locked" ""
				(at 0 0 0)
				(effects
					(font
						(size 1.27 1.27)
					)
				)
			)
			(property "ki_keywords" "TTL BUFFER 3State BUS"
				(at 0 0 0)
				(effects
					(font
						(size 1.27 1.27)
					)
					(hide yes)
				)
			)
			(property "ki_fp_filters" "DIP?20*"
				(at 0 0 0)
				(effects
					(font
						(size 1.27 1.27)
					)
					(hide yes)
				)
			)
			(symbol "74LS541_1_0"
				(polyline
					(pts
						(xy -0.635 -1.6002) (xy -0.635 0.9398) (xy 0.635 0.9398)
					)
					(stroke
						(width 0)
						(type default)
					)
					(fill
						(type none)
					)
				)
				(polyline
					(pts
						(xy -1.27 -1.6002) (xy 0.635 -1.6002) (xy 0.635 0.9398) (xy 1.27 0.9398)
					)
					(stroke
						(width 0)
						(type default)
					)
					(fill
						(type none)
					)
				)
				(polyline
					(pts
						(xy 1.27 3.4798) (xy -1.27 4.7498) (xy -1.27 2.2098) (xy 1.27 3.4798)
					)
					(stroke
						(width 0.1524)
						(type default)
					)
					(fill
						(type none)
					)
				)
				(pin input inverted
					(at -12.7 -10.16 0)
					(length 5.08)
					(name "G1"
						(effects
							(font
								(size 1.27 1.27)
							)
						)
					)
					(number "1"
						(effects
							(font
								(size 1.27 1.27)
							)
						)
					)
				)
				(pin power_in line
					(at 0 -20.32 90)
					(length 5.08)
					(name "GND"
						(effects
							(font
								(size 1.27 1.27)
							)
						)
					)
					(number "10"
						(effects
							(font
								(size 1.27 1.27)
							)
						)
					)
				)
				(pin tri_state line
					(at 12.7 -5.08 180)
					(length 5.08)
					(name "Y7"
						(effects
							(font
								(size 1.27 1.27)
							)
						)
					)
					(number "11"
						(effects
							(font
								(size 1.27 1.27)
							)
						)
					)
				)
				(pin tri_state line
					(at 12.7 -2.54 180)
					(length 5.08)
					(name "Y6"
						(effects
							(font
								(size 1.27 1.27)
							)
						)
					)
					(number "12"
						(effects
							(font
								(size 1.27 1.27)
							)
						)
					)
				)
				(pin tri_state line
					(at 12.7 0 180)
					(length 5.08)
					(name "Y5"
						(effects
							(font
								(size 1.27 1.27)
							)
						)
					)
					(number "13"
						(effects
							(font
								(size 1.27 1.27)
							)
						)
					)
				)
				(pin tri_state line
					(at 12.7 2.54 180)
					(length 5.08)
					(name "Y4"
						(effects
							(font
								(size 1.27 1.27)
							)
						)
					)
					(number "14"
						(effects
							(font
								(size 1.27 1.27)
							)
						)
					)
				)
				(pin tri_state line
					(at 12.7 5.08 180)
					(length 5.08)
					(name "Y3"
						(effects
							(font
								(size 1.27 1.27)
							)
						)
					)
					(number "15"
						(effects
							(font
								(size 1.27 1.27)
							)
						)
					)
				)
				(pin tri_state line
					(at 12.7 7.62 180)
					(length 5.08)
					(name "Y2"
						(effects
							(font
								(size 1.27 1.27)
							)
						)
					)
					(number "16"
						(effects
							(font
								(size 1.27 1.27)
							)
						)
					)
				)
				(pin tri_state line
					(at 12.7 10.16 180)
					(length 5.08)
					(name "Y1"
						(effects
							(font
								(size 1.27 1.27)
							)
						)
					)
					(number "17"
						(effects
							(font
								(size 1.27 1.27)
							)
						)
					)
				)
				(pin tri_state line
					(at 12.7 12.7 180)
					(length 5.08)
					(name "Y0"
						(effects
							(font
								(size 1.27 1.27)
							)
						)
					)
					(number "18"
						(effects
							(font
								(size 1.27 1.27)
							)
						)
					)
				)
				(pin input inverted
					(at -12.7 -12.7 0)
					(length 5.08)
					(name "G2"
						(effects
							(font
								(size 1.27 1.27)
							)
						)
					)
					(number "19"
						(effects
							(font
								(size 1.27 1.27)
							)
						)
					)
				)
				(pin input line
					(at -12.7 12.7 0)
					(length 5.08)
					(name "A0"
						(effects
							(font
								(size 1.27 1.27)
							)
						)
					)
					(number "2"
						(effects
							(font
								(size 1.27 1.27)
							)
						)
					)
				)
				(pin power_in line
					(at 0 20.32 270)
					(length 5.08)
					(name "VCC"
						(effects
							(font
								(size 1.27 1.27)
							)
						)
					)
					(number "20"
						(effects
							(font
								(size 1.27 1.27)
							)
						)
					)
				)
				(pin input line
					(at -12.7 10.16 0)
					(length 5.08)
					(name "A1"
						(effects
							(font
								(size 1.27 1.27)
							)
						)
					)
					(number "3"
						(effects
							(font
								(size 1.27 1.27)
							)
						)
					)
				)
				(pin input line
					(at -12.7 7.62 0)
					(length 5.08)
					(name "A2"
						(effects
							(font
								(size 1.27 1.27)
							)
						)
					)
					(number "4"
						(effects
							(font
								(size 1.27 1.27)
							)
						)
					)
				)
				(pin input line
					(at -12.7 5.08 0)
					(length 5.08)
					(name "A3"
						(effects
							(font
								(size 1.27 1.27)
							)
						)
					)
					(number "5"
						(effects
							(font
								(size 1.27 1.27)
							)
						)
					)
				)
				(pin input line
					(at -12.7 2.54 0)
					(length 5.08)
					(name "A4"
						(effects
							(font
								(size 1.27 1.27)
							)
						)
					)
					(number "6"
						(effects
							(font
								(size 1.27 1.27)
							)
						)
					)
				)
				(pin input line
					(at -12.7 0 0)
					(length 5.08)
					(name "A5"
						(effects
							(font
								(size 1.27 1.27)
							)
						)
					)
					(number "7"
						(effects
							(font
								(size 1.27 1.27)
							)
						)
					)
				)
				(pin input line
					(at -12.7 -2.54 0)
					(length 5.08)
					(name "A6"
						(effects
							(font
								(size 1.27 1.27)
							)
						)
					)
					(number "8"
						(effects
							(font
								(size 1.27 1.27)
							)
						)
					)
				)
				(pin input line
					(at -12.7 -5.08 0)
					(length 5.08)
					(name "A7"
						(effects
							(font
								(size 1.27 1.27)
							)
						)
					)
					(number "9"
						(effects
							(font
								(size 1.27 1.27)
							)
						)
					)
				)
			)
			(symbol "74LS541_1_1"
				(rectangle
					(start -7.62 15.24)
					(end 7.62 -15.24)
					(stroke
						(width 0.254)
						(type default)
					)
					(fill
						(type background)
					)
				)
			)
		)
		(symbol "power:+5V"
			(power)
			(pin_numbers hide)
			(pin_names
				(offset 0) hide)
			(exclude_from_sim no)
			(in_bom yes)
			(on_board yes)
			(property "Reference" "#PWR"
				(at 0 -3.81 0)
				(effects
					(font
						(size 1.27 1.27)
					)
					(hide yes)
				)
			)
			(property "Value" "+5V"
				(at 0 3.556 0)
				(effects
					(font
						(size 1.27 1.27)
					)
				)
			)
			(property "Footprint" ""
				(at 0 0 0)
				(effects
					(font
						(size 1.27 1.27)
					)
					(hide yes)
				)
			)
			(property "Datasheet" ""
				(at 0 0 0)
				(effects
					(font
						(size 1.27 1.27)
					)
					(hide yes)
				)
			)
			(property "Description" "Power symbol creates a global label with name \"+5V\""
				(at 0 0 0)
				(effects
					(font
						(size 1.27 1.27)
					)
					(hide yes)
				)
			)
			(property "ki_keywords" "global power"
				(at 0 0 0)
				(effects
					(font
						(size 1.27 1.27)
					)
					(hide yes)
				)
			)
			(symbol "+5V_0_1"
				(polyline
					(pts
						(xy -0.762 1.27) (xy 0 2.54)
					)
					(stroke
						(width 0)
						(type default)
					)
					(fill
						(type none)
					)
				)
				(polyline
					(pts
						(xy 0 0) (xy 0 2.54)
					)
					(stroke
						(width 0)
						(type default)
					)
					(fill
						(type none)
					)
				)
				(polyline
					(pts
						(xy 0 2.54) (xy 0.762 1.27)
					)
					(stroke
						(width 0)
						(type default)
					)
					(fill
						(type none)
					)
				)
			)
			(symbol "+5V_1_1"
				(pin power_in line
					(at 0 0 90)
					(length 0)
					(name "~"
						(effects
							(font
								(size 1.27 1.27)
							)
						)
					)
					(number "1"
						(effects
							(font
								(size 1.27 1.27)
							)
						)
					)
				)
			)
		)
		(symbol "power:GND"
			(power)
			(pin_numbers hide)
			(pin_names
				(offset 0) hide)
			(exclude_from_sim no)
			(in_bom yes)
			(on_board yes)
			(property "Reference" "#PWR"
				(at 0 -6.35 0)
				(effects
					(font
						(size 1.27 1.27)
					)
					(hide yes)
				)
			)
			(property "Value" "GND"
				(at 0 -3.81 0)
				(effects
					(font
						(size 1.27 1.27)
					)
				)
			)
			(property "Footprint" ""
				(at 0 0 0)
				(effects
					(font
						(size 1.27 1.27)
					)
					(hide yes)
				)
			)
			(property "Datasheet" ""
				(at 0 0 0)
				(effects
					(font
						(size 1.27 1.27)
					)
					(hide yes)
				)
			)
			(property "Description" "Power symbol creates a global label with name \"GND\" , ground"
				(at 0 0 0)
				(effects
					(font
						(size 1.27 1.27)
					)
					(hide yes)
				)
			)
			(property "ki_keywords" "global power"
				(at 0 0 0)
				(effects
					(font
						(size 1.27 1.27)
					)
					(hide yes)
				)
			)
			(symbol "GND_0_1"
				(polyline
					(pts
						(xy 0 0) (xy 0 -1.27) (xy 1.27 -1.27) (xy 0 -2.54) (xy -1.27 -1.27) (xy 0 -1.27)
					)
					(stroke
						(width 0)
						(type default)
					)
					(fill
						(type none)
					)
				)
			)
			(symbol "GND_1_1"
				(pin power_in line
					(at 0 0 270)
					(length 0)
					(name "~"
						(effects
							(font
								(size 1.27 1.27)
							)
						)
					)
					(number "1"
						(effects
							(font
								(size 1.27 1.27)
							)
						)
					)
				)
			)
		)
	)
	(junction
		(at 200.66 80.01)
		(diameter 0)
		(color 0 0 0 0)
		(uuid "2a833c99-4592-42db-bbcd-a298a1c1e835")
	)
	(junction
		(at 74.93 87.63)
		(diameter 0)
		(color 0 0 0 0)
		(uuid "a71221d4-bfb0-4381-8e23-b85404425e0d")
	)
	(junction
		(at 74.93 142.24)
		(diameter 0)
		(color 0 0 0 0)
		(uuid "b7e3a921-3669-423a-959a-65d7c8124e4c")
	)
	(bus_entry
		(at 53.34 109.22)
		(size -2.54 -2.54)
		(stroke
			(width 0)
			(type default)
		)
		(uuid "0695f435-2ace-49e2-9df3-35958a200785")
	)
	(bus_entry
		(at 53.34 124.46)
		(size -2.54 -2.54)
		(stroke
			(width 0)
			(type default)
		)
		(uuid "0b73f104-e019-44a4-a764-a1ec9397b24c")
	)
	(bus_entry
		(at 165.1 115.57)
		(size 2.54 -2.54)
		(stroke
			(width 0)
			(type default)
		)
		(uuid "0ea09429-fd3c-4795-9904-672a85eba285")
	)
	(bus_entry
		(at 165.1 60.96)
		(size 2.54 -2.54)
		(stroke
			(width 0)
			(type default)
		)
		(uuid "0f1a09d7-cd0b-4fbf-b9c1-3e6c7059222c")
	)
	(bus_entry
		(at 165.1 110.49)
		(size 2.54 -2.54)
		(stroke
			(width 0)
			(type default)
		)
		(uuid "1132f084-5ca8-417c-9315-10cc0fdfbf9b")
	)
	(bus_entry
		(at 248.92 67.31)
		(size 2.54 -2.54)
		(stroke
			(width 0)
			(type default)
		)
		(uuid "186aa7cf-f7c7-4157-bed1-b383172562d8")
	)
	(bus_entry
		(at 53.34 67.31)
		(size -2.54 -2.54)
		(stroke
			(width 0)
			(type default)
		)
		(uuid "1f0b55f1-eb9e-45ed-8113-1b181f6bccc0")
	)
	(bus_entry
		(at 165.1 68.58)
		(size 2.54 -2.54)
		(stroke
			(width 0)
			(type default)
		)
		(uuid "1f99498b-3438-4e56-b77e-6bb1a2795642")
	)
	(bus_entry
		(at 53.34 64.77)
		(size -2.54 -2.54)
		(stroke
			(width 0)
			(type default)
		)
		(uuid "22c7930f-5ff3-4917-95b4-9494b02c47dc")
	)
	(bus_entry
		(at 53.34 111.76)
		(size -2.54 -2.54)
		(stroke
			(width 0)
			(type default)
		)
		(uuid "23ad2503-5e37-4283-9489-20061cb9bdea")
	)
	(bus_entry
		(at 248.92 111.76)
		(size 2.54 -2.54)
		(stroke
			(width 0)
			(type default)
		)
		(uuid "23d7b123-4481-4b28-8086-c53510c0aed7")
	)
	(bus_entry
		(at 165.1 123.19)
		(size 2.54 -2.54)
		(stroke
			(width 0)
			(type default)
		)
		(uuid "27ffa058-e1af-4df7-821c-23bf655e767f")
	)
	(bus_entry
		(at 248.92 127)
		(size 2.54 -2.54)
		(stroke
			(width 0)
			(type default)
		)
		(uuid "2a530868-307a-4af4-8d4b-e6f91683909a")
	)
	(bus_entry
		(at 165.1 63.5)
		(size 2.54 -2.54)
		(stroke
			(width 0)
			(type default)
		)
		(uuid "3bde4390-e83a-4394-85ba-b228c5d2ee10")
	)
	(bus_entry
		(at 165.1 55.88)
		(size 2.54 -2.54)
		(stroke
			(width 0)
			(type default)
		)
		(uuid "4b3f40e6-af3a-4997-861b-736015946002")
	)
	(bus_entry
		(at 248.92 54.61)
		(size 2.54 -2.54)
		(stroke
			(width 0)
			(type default)
		)
		(uuid "51d273d4-62dd-4a2c-aecc-78e49af235e4")
	)
	(bus_entry
		(at 53.34 59.69)
		(size -2.54 -2.54)
		(stroke
			(width 0)
			(type default)
		)
		(uuid "5302c6b2-63c0-44dd-8259-e4eb3f04b13a")
	)
	(bus_entry
		(at 53.34 62.23)
		(size -2.54 -2.54)
		(stroke
			(width 0)
			(type default)
		)
		(uuid "56b50ca5-ca11-4c4b-b04d-241bc012b62b")
	)
	(bus_entry
		(at 165.1 66.04)
		(size 2.54 -2.54)
		(stroke
			(width 0)
			(type default)
		)
		(uuid "5f92b9d6-6d25-4570-ae30-0d4ae2e1a10f")
	)
	(bus_entry
		(at 53.34 116.84)
		(size -2.54 -2.54)
		(stroke
			(width 0)
			(type default)
		)
		(uuid "5fff854a-6aa1-4424-8bfa-70e904f0d6e0")
	)
	(bus_entry
		(at 248.92 62.23)
		(size 2.54 -2.54)
		(stroke
			(width 0)
			(type default)
		)
		(uuid "604df91e-0ea6-430f-a3ae-6b9f3dd462dc")
	)
	(bus_entry
		(at 248.92 119.38)
		(size 2.54 -2.54)
		(stroke
			(width 0)
			(type default)
		)
		(uuid "6b03295f-5dfa-4cc5-8405-4cd7a0253cfc")
	)
	(bus_entry
		(at 248.92 59.69)
		(size 2.54 -2.54)
		(stroke
			(width 0)
			(type default)
		)
		(uuid "799fc41d-70ac-4947-a4db-ca54afdede00")
	)
	(bus_entry
		(at 53.34 72.39)
		(size -2.54 -2.54)
		(stroke
			(width 0)
			(type default)
		)
		(uuid "7b65ab49-5994-4e7b-8ff6-2fca06a42c5f")
	)
	(bus_entry
		(at 165.1 128.27)
		(size 2.54 -2.54)
		(stroke
			(width 0)
			(type default)
		)
		(uuid "81bfc28c-1ad5-49dd-87b2-72b326929511")
	)
	(bus_entry
		(at 165.1 125.73)
		(size 2.54 -2.54)
		(stroke
			(width 0)
			(type default)
		)
		(uuid "8a8f2138-3975-44a9-b1c0-af507238367f")
	)
	(bus_entry
		(at 248.92 116.84)
		(size 2.54 -2.54)
		(stroke
			(width 0)
			(type default)
		)
		(uuid "90f2314f-c5cf-432c-af60-4d209c8242e3")
	)
	(bus_entry
		(at 248.92 121.92)
		(size 2.54 -2.54)
		(stroke
			(width 0)
			(type default)
		)
		(uuid "936515c4-f058-4d91-a3d3-8f8af684d132")
	)
	(bus_entry
		(at 248.92 72.39)
		(size 2.54 -2.54)
		(stroke
			(width 0)
			(type default)
		)
		(uuid "9938dc7e-b9d7-4a25-8732-d04dfa4eac3e")
	)
	(bus_entry
		(at 165.1 120.65)
		(size 2.54 -2.54)
		(stroke
			(width 0)
			(type default)
		)
		(uuid "9ae4d813-5940-4406-a487-9fc8c0759499")
	)
	(bus_entry
		(at 248.92 109.22)
		(size 2.54 -2.54)
		(stroke
			(width 0)
			(type default)
		)
		(uuid "9c2ba623-a101-47ab-99b6-a6fb76557e54")
	)
	(bus_entry
		(at 165.1 118.11)
		(size 2.54 -2.54)
		(stroke
			(width 0)
			(type default)
		)
		(uuid "a54edc4d-2738-4545-b4e7-53a6dc783ffc")
	)
	(bus_entry
		(at 248.92 114.3)
		(size 2.54 -2.54)
		(stroke
			(width 0)
			(type default)
		)
		(uuid "a64a82be-604e-4412-9dba-538278b10358")
	)
	(bus_entry
		(at 165.1 71.12)
		(size 2.54 -2.54)
		(stroke
			(width 0)
			(type default)
		)
		(uuid "ae0ad9de-951e-4942-86ba-c5436f4e7778")
	)
	(bus_entry
		(at 165.1 73.66)
		(size 2.54 -2.54)
		(stroke
			(width 0)
			(type default)
		)
		(uuid "b8553b9c-5246-43ef-a989-93dce7c738fb")
	)
	(bus_entry
		(at 165.1 58.42)
		(size 2.54 -2.54)
		(stroke
			(width 0)
			(type default)
		)
		(uuid "bcb426e8-7a79-46a8-a696-75e092dbe048")
	)
	(bus_entry
		(at 53.34 127)
		(size -2.54 -2.54)
		(stroke
			(width 0)
			(type default)
		)
		(uuid "bdb775a5-25d4-41cd-92b4-3164077ed884")
	)
	(bus_entry
		(at 53.34 57.15)
		(size -2.54 -2.54)
		(stroke
			(width 0)
			(type default)
		)
		(uuid "bee8f4bb-46b8-45ce-a672-f38cfa4fa6cb")
	)
	(bus_entry
		(at 53.34 54.61)
		(size -2.54 -2.54)
		(stroke
			(width 0)
			(type default)
		)
		(uuid "c23ae07f-2658-4edc-a834-45ae25682d0f")
	)
	(bus_entry
		(at 53.34 69.85)
		(size -2.54 -2.54)
		(stroke
			(width 0)
			(type default)
		)
		(uuid "caba2f7f-e2dd-404e-b958-8de23712d7bd")
	)
	(bus_entry
		(at 165.1 113.03)
		(size 2.54 -2.54)
		(stroke
			(width 0)
			(type default)
		)
		(uuid "ccf65cad-0db7-4ca9-870c-0c6995efb44b")
	)
	(bus_entry
		(at 53.34 114.3)
		(size -2.54 -2.54)
		(stroke
			(width 0)
			(type default)
		)
		(uuid "d29d4249-8648-45d2-af43-76ea13ce57f7")
	)
	(bus_entry
		(at 53.34 121.92)
		(size -2.54 -2.54)
		(stroke
			(width 0)
			(type default)
		)
		(uuid "dc53b8c9-dfea-4c81-9ff2-2a01ea5e3cc2")
	)
	(bus_entry
		(at 248.92 57.15)
		(size 2.54 -2.54)
		(stroke
			(width 0)
			(type default)
		)
		(uuid "de7a33fe-21e7-4ab3-a998-b4740db28203")
	)
	(bus_entry
		(at 248.92 124.46)
		(size 2.54 -2.54)
		(stroke
			(width 0)
			(type default)
		)
		(uuid "e7d5af0b-1563-477a-8afa-760c742577b0")
	)
	(bus_entry
		(at 248.92 64.77)
		(size 2.54 -2.54)
		(stroke
			(width 0)
			(type default)
		)
		(uuid "eb628a2a-eab9-4a93-9f42-748929471ffe")
	)
	(bus_entry
		(at 248.92 69.85)
		(size 2.54 -2.54)
		(stroke
			(width 0)
			(type default)
		)
		(uuid "f5b8f4d3-7c4c-4a7d-a004-ccf0702e6a30")
	)
	(bus_entry
		(at 53.34 119.38)
		(size -2.54 -2.54)
		(stroke
			(width 0)
			(type default)
		)
		(uuid "feb94580-9684-401b-b6f0-2086a0dabec0")
	)
	(bus
		(pts
			(xy 167.64 60.96) (xy 167.64 63.5)
		)
		(stroke
			(width 0)
			(type default)
		)
		(uuid "009f4be8-0026-40b7-9639-1f333c817472")
	)
	(wire
		(pts
			(xy 53.34 57.15) (xy 62.23 57.15)
		)
		(stroke
			(width 0)
			(type default)
		)
		(uuid "00c0c9b8-5fcc-45c4-b97d-e61631663b08")
	)
	(wire
		(pts
			(xy 53.34 116.84) (xy 62.23 116.84)
		)
		(stroke
			(width 0)
			(type default)
		)
		(uuid "05e93fd0-e9db-4722-98e1-851a90b1db94")
	)
	(wire
		(pts
			(xy 157.48 128.27) (xy 165.1 128.27)
		)
		(stroke
			(width 0)
			(type default)
		)
		(uuid "09406132-9c95-4b86-81ec-5abd7a069b20")
	)
	(wire
		(pts
			(xy 53.34 111.76) (xy 62.23 111.76)
		)
		(stroke
			(width 0)
			(type default)
		)
		(uuid "097a9c90-c5a3-48a3-9010-a47f2cee2fa3")
	)
	(wire
		(pts
			(xy 157.48 60.96) (xy 165.1 60.96)
		)
		(stroke
			(width 0)
			(type default)
		)
		(uuid "102ea3d6-f1fa-4d2e-940a-534576a00bd2")
	)
	(bus
		(pts
			(xy 167.64 123.19) (xy 167.64 125.73)
		)
		(stroke
			(width 0)
			(type default)
		)
		(uuid "122b3f9d-27dd-45e7-b481-b89879fbef40")
	)
	(wire
		(pts
			(xy 62.23 80.01) (xy 62.23 87.63)
		)
		(stroke
			(width 0)
			(type default)
		)
		(uuid "126a0ac7-5987-4522-aed1-1c5d0fb30e4d")
	)
	(bus
		(pts
			(xy 50.8 109.22) (xy 50.8 111.76)
		)
		(stroke
			(width 0)
			(type default)
		)
		(uuid "15eb45ce-e0d9-4d54-93e9-5d7371d25edb")
	)
	(bus
		(pts
			(xy 50.8 121.92) (xy 50.8 124.46)
		)
		(stroke
			(width 0)
			(type default)
		)
		(uuid "1711c9aa-ad58-45bd-a0fa-110ad88126ad")
	)
	(wire
		(pts
			(xy 53.34 121.92) (xy 62.23 121.92)
		)
		(stroke
			(width 0)
			(type default)
		)
		(uuid "18cffb5c-8290-408b-8971-60ad724b9f56")
	)
	(bus
		(pts
			(xy 251.46 111.76) (xy 251.46 114.3)
		)
		(stroke
			(width 0)
			(type default)
		)
		(uuid "1b80a518-68fa-4dd4-a6ee-b13a515d2cc4")
	)
	(wire
		(pts
			(xy 53.34 72.39) (xy 62.23 72.39)
		)
		(stroke
			(width 0)
			(type default)
		)
		(uuid "1ee3dc8d-7cbb-40da-b7da-654f500edbb1")
	)
	(bus
		(pts
			(xy 167.64 68.58) (xy 167.64 71.12)
		)
		(stroke
			(width 0)
			(type default)
		)
		(uuid "1fc464c6-fb22-4748-b961-fef0284f9391")
	)
	(wire
		(pts
			(xy 241.3 62.23) (xy 248.92 62.23)
		)
		(stroke
			(width 0)
			(type default)
		)
		(uuid "21102437-7f09-453b-8b98-fe94a0fcf3ab")
	)
	(wire
		(pts
			(xy 241.3 64.77) (xy 248.92 64.77)
		)
		(stroke
			(width 0)
			(type default)
		)
		(uuid "215d05c8-b6dd-4a6a-8ea2-13003d5e7db8")
	)
	(bus
		(pts
			(xy 251.46 69.85) (xy 251.46 106.68)
		)
		(stroke
			(width 0)
			(type default)
		)
		(uuid "259d470a-c1c1-4b18-9062-75ddae300e23")
	)
	(bus
		(pts
			(xy 251.46 114.3) (xy 251.46 116.84)
		)
		(stroke
			(width 0)
			(type default)
		)
		(uuid "2650893f-6a8d-425d-96a2-a47f6caabe0d")
	)
	(wire
		(pts
			(xy 241.3 109.22) (xy 248.92 109.22)
		)
		(stroke
			(width 0)
			(type default)
		)
		(uuid "2b3989ef-423b-4709-8426-36c457e85f12")
	)
	(wire
		(pts
			(xy 241.3 127) (xy 248.92 127)
		)
		(stroke
			(width 0)
			(type default)
		)
		(uuid "2bf94d88-a11b-4cfb-b1cf-505fa2d67dca")
	)
	(bus
		(pts
			(xy 251.46 64.77) (xy 251.46 67.31)
		)
		(stroke
			(width 0)
			(type default)
		)
		(uuid "2d7ed489-aab3-4673-badd-d100e598f818")
	)
	(wire
		(pts
			(xy 195.58 80.01) (xy 200.66 80.01)
		)
		(stroke
			(width 0)
			(type default)
		)
		(uuid "2d80adef-a65a-4805-931f-a0632ae61132")
	)
	(wire
		(pts
			(xy 241.3 111.76) (xy 248.92 111.76)
		)
		(stroke
			(width 0)
			(type default)
		)
		(uuid "2e63483d-9317-4665-9b90-964342d85ec5")
	)
	(bus
		(pts
			(xy 50.8 114.3) (xy 50.8 116.84)
		)
		(stroke
			(width 0)
			(type default)
		)
		(uuid "3310edf2-cc4a-47c0-a395-6147f2e0c9c4")
	)
	(wire
		(pts
			(xy 241.3 121.92) (xy 248.92 121.92)
		)
		(stroke
			(width 0)
			(type default)
		)
		(uuid "37a80762-e7c0-490c-9836-405cfbe97e46")
	)
	(bus
		(pts
			(xy 251.46 67.31) (xy 251.46 69.85)
		)
		(stroke
			(width 0)
			(type default)
		)
		(uuid "3840490f-cd70-427f-9af0-d6330b45e9fa")
	)
	(bus
		(pts
			(xy 167.64 66.04) (xy 167.64 68.58)
		)
		(stroke
			(width 0)
			(type default)
		)
		(uuid "38d9f427-74da-446c-865c-78f86c886d28")
	)
	(wire
		(pts
			(xy 241.3 72.39) (xy 248.92 72.39)
		)
		(stroke
			(width 0)
			(type default)
		)
		(uuid "3df65d29-d7e9-48dd-8324-5a50bf1c71cc")
	)
	(wire
		(pts
			(xy 53.34 124.46) (xy 62.23 124.46)
		)
		(stroke
			(width 0)
			(type default)
		)
		(uuid "3e8ac8df-4fd0-489a-aaae-372dcaa047a7")
	)
	(bus
		(pts
			(xy 167.64 63.5) (xy 167.64 66.04)
		)
		(stroke
			(width 0)
			(type default)
		)
		(uuid "3f60070f-f0c3-4546-a580-a699878aaf87")
	)
	(bus
		(pts
			(xy 50.8 59.69) (xy 50.8 62.23)
		)
		(stroke
			(width 0)
			(type default)
		)
		(uuid "41a6fd99-e783-45c4-86f2-c3650db447a1")
	)
	(bus
		(pts
			(xy 167.64 71.12) (xy 167.64 107.95)
		)
		(stroke
			(width 0)
			(type default)
		)
		(uuid "47ac6934-cbfe-4a0e-a5a6-54721d35cb6d")
	)
	(wire
		(pts
			(xy 53.34 119.38) (xy 62.23 119.38)
		)
		(stroke
			(width 0)
			(type default)
		)
		(uuid "4da85542-5e4c-4901-9c49-b6489f36fa37")
	)
	(bus
		(pts
			(xy 167.64 53.34) (xy 167.64 55.88)
		)
		(stroke
			(width 0)
			(type default)
		)
		(uuid "4f8b8632-e3d8-4ca1-8a99-ef124584e627")
	)
	(wire
		(pts
			(xy 157.48 73.66) (xy 165.1 73.66)
		)
		(stroke
			(width 0)
			(type default)
		)
		(uuid "534606fc-ab6d-4ad8-8fe1-23a4f58c3f52")
	)
	(wire
		(pts
			(xy 53.34 114.3) (xy 62.23 114.3)
		)
		(stroke
			(width 0)
			(type default)
		)
		(uuid "56c2260a-d1be-4d21-bb02-3e57a22aba65")
	)
	(wire
		(pts
			(xy 53.34 69.85) (xy 62.23 69.85)
		)
		(stroke
			(width 0)
			(type default)
		)
		(uuid "5a2191e3-4917-41a9-a949-61432efa6784")
	)
	(wire
		(pts
			(xy 241.3 59.69) (xy 248.92 59.69)
		)
		(stroke
			(width 0)
			(type default)
		)
		(uuid "644258fd-8cdc-4bc9-bee6-40d18e18c1e3")
	)
	(bus
		(pts
			(xy 50.8 62.23) (xy 50.8 64.77)
		)
		(stroke
			(width 0)
			(type default)
		)
		(uuid "663fba62-811f-4c47-9722-61600c873589")
	)
	(wire
		(pts
			(xy 53.34 54.61) (xy 62.23 54.61)
		)
		(stroke
			(width 0)
			(type default)
		)
		(uuid "674d12df-d44d-413c-8f0c-72032e0a5495")
	)
	(wire
		(pts
			(xy 53.34 67.31) (xy 62.23 67.31)
		)
		(stroke
			(width 0)
			(type default)
		)
		(uuid "6841f18f-6732-4109-a4a9-4e364ce60f24")
	)
	(wire
		(pts
			(xy 62.23 142.24) (xy 74.93 142.24)
		)
		(stroke
			(width 0)
			(type default)
		)
		(uuid "6a36cb4e-9f08-4843-b2ad-8758b833260a")
	)
	(wire
		(pts
			(xy 53.34 127) (xy 62.23 127)
		)
		(stroke
			(width 0)
			(type default)
		)
		(uuid "6b19e1c4-a470-4b39-bfcc-447ce588d563")
	)
	(wire
		(pts
			(xy 157.48 123.19) (xy 165.1 123.19)
		)
		(stroke
			(width 0)
			(type default)
		)
		(uuid "6e6ab6e7-5ee5-4245-a94e-ff3163cc0bb1")
	)
	(bus
		(pts
			(xy 251.46 121.92) (xy 251.46 124.46)
		)
		(stroke
			(width 0)
			(type default)
		)
		(uuid "744a4437-c0d2-48e8-8f8d-2c15efcb7d57")
	)
	(wire
		(pts
			(xy 241.3 119.38) (xy 248.92 119.38)
		)
		(stroke
			(width 0)
			(type default)
		)
		(uuid "771d8cae-6982-484a-a529-fd5c1038c5ea")
	)
	(bus
		(pts
			(xy 50.8 116.84) (xy 50.8 119.38)
		)
		(stroke
			(width 0)
			(type default)
		)
		(uuid "7778b78b-bbc4-47d8-b72e-67e6515ae586")
	)
	(wire
		(pts
			(xy 157.48 110.49) (xy 165.1 110.49)
		)
		(stroke
			(width 0)
			(type default)
		)
		(uuid "79d44e86-b32c-4bee-b2c7-2810fa3c1ac3")
	)
	(bus
		(pts
			(xy 251.46 62.23) (xy 251.46 64.77)
		)
		(stroke
			(width 0)
			(type default)
		)
		(uuid "7c4ba911-2298-4983-97eb-2bd8194f3c6c")
	)
	(wire
		(pts
			(xy 241.3 69.85) (xy 248.92 69.85)
		)
		(stroke
			(width 0)
			(type default)
		)
		(uuid "7e816b30-a724-4325-ad6b-5baba3cbb88d")
	)
	(bus
		(pts
			(xy 251.46 106.68) (xy 251.46 109.22)
		)
		(stroke
			(width 0)
			(type default)
		)
		(uuid "80e115a9-9dfd-4cf1-8c2d-976aa0e8d766")
	)
	(bus
		(pts
			(xy 251.46 57.15) (xy 251.46 59.69)
		)
		(stroke
			(width 0)
			(type default)
		)
		(uuid "811630a3-0e81-4eb2-8c3b-8848e153eb59")
	)
	(wire
		(pts
			(xy 62.23 134.62) (xy 62.23 142.24)
		)
		(stroke
			(width 0)
			(type default)
		)
		(uuid "81449299-c413-4f50-afd3-a7304bf4d48a")
	)
	(wire
		(pts
			(xy 53.34 109.22) (xy 62.23 109.22)
		)
		(stroke
			(width 0)
			(type default)
		)
		(uuid "8a342100-1d62-4473-96ee-afe2c2542250")
	)
	(bus
		(pts
			(xy 50.8 57.15) (xy 50.8 59.69)
		)
		(stroke
			(width 0)
			(type default)
		)
		(uuid "8a97afa8-715c-49da-b8be-1ab1a338f5ca")
	)
	(bus
		(pts
			(xy 50.8 64.77) (xy 50.8 67.31)
		)
		(stroke
			(width 0)
			(type default)
		)
		(uuid "8c776d4c-fa08-40b8-aee6-397bfae1f751")
	)
	(wire
		(pts
			(xy 200.66 80.01) (xy 215.9 80.01)
		)
		(stroke
			(width 0)
			(type default)
		)
		(uuid "8d20c0ef-6557-491e-ba71-0f82006ae52f")
	)
	(wire
		(pts
			(xy 200.66 80.01) (xy 200.66 134.62)
		)
		(stroke
			(width 0)
			(type default)
		)
		(uuid "8e5af193-b5bc-4a85-b524-6e2c25c5e757")
	)
	(bus
		(pts
			(xy 50.8 54.61) (xy 50.8 57.15)
		)
		(stroke
			(width 0)
			(type default)
		)
		(uuid "92e9c43c-6d2f-4d2a-ae44-dee2768b3330")
	)
	(wire
		(pts
			(xy 200.66 134.62) (xy 215.9 134.62)
		)
		(stroke
			(width 0)
			(type default)
		)
		(uuid "944e91f3-c7b8-4392-8bbc-695bbda09483")
	)
	(bus
		(pts
			(xy 167.64 58.42) (xy 167.64 60.96)
		)
		(stroke
			(width 0)
			(type default)
		)
		(uuid "9ae8f016-10ce-452c-8585-4a6a17237f83")
	)
	(bus
		(pts
			(xy 251.46 109.22) (xy 251.46 111.76)
		)
		(stroke
			(width 0)
			(type default)
		)
		(uuid "9cd2b81a-6ec9-4b57-acb8-8e4eee592cff")
	)
	(bus
		(pts
			(xy 167.64 53.34) (xy 173.99 53.34)
		)
		(stroke
			(width 0)
			(type default)
		)
		(uuid "9dfe89fe-9706-4929-a1f9-4db2deb20553")
	)
	(wire
		(pts
			(xy 53.34 59.69) (xy 62.23 59.69)
		)
		(stroke
			(width 0)
			(type default)
		)
		(uuid "a16ad9b7-b531-485a-a0e0-21e510f1cffc")
	)
	(bus
		(pts
			(xy 50.8 52.07) (xy 50.8 54.61)
		)
		(stroke
			(width 0)
			(type default)
		)
		(uuid "a300e581-b5df-45c6-a882-4b65d8455a89")
	)
	(bus
		(pts
			(xy 251.46 54.61) (xy 251.46 57.15)
		)
		(stroke
			(width 0)
			(type default)
		)
		(uuid "a83ae11a-9e38-4c07-bde3-e456eef7484d")
	)
	(bus
		(pts
			(xy 251.46 119.38) (xy 251.46 121.92)
		)
		(stroke
			(width 0)
			(type default)
		)
		(uuid "aa69ef5e-3555-4918-95a0-b02d36a6a747")
	)
	(wire
		(pts
			(xy 157.48 71.12) (xy 165.1 71.12)
		)
		(stroke
			(width 0)
			(type default)
		)
		(uuid "aa81dace-0ec6-41cb-a29f-94456ec252ba")
	)
	(bus
		(pts
			(xy 251.46 116.84) (xy 251.46 119.38)
		)
		(stroke
			(width 0)
			(type default)
		)
		(uuid "aabdb620-2571-4441-a92d-e3c03932e551")
	)
	(wire
		(pts
			(xy 62.23 87.63) (xy 74.93 87.63)
		)
		(stroke
			(width 0)
			(type default)
		)
		(uuid "aaee478b-e4d5-47a6-98d5-5c6a7084d041")
	)
	(wire
		(pts
			(xy 53.34 64.77) (xy 62.23 64.77)
		)
		(stroke
			(width 0)
			(type default)
		)
		(uuid "ad23f338-5267-4fa7-962e-51108888da12")
	)
	(bus
		(pts
			(xy 45.72 52.07) (xy 50.8 52.07)
		)
		(stroke
			(width 0)
			(type default)
		)
		(uuid "b424e454-8dd1-4edb-9d72-5436c965fc1c")
	)
	(bus
		(pts
			(xy 167.64 110.49) (xy 167.64 113.03)
		)
		(stroke
			(width 0)
			(type default)
		)
		(uuid "b6816cfc-782b-421f-b096-698eb345b69c")
	)
	(bus
		(pts
			(xy 167.64 107.95) (xy 167.64 110.49)
		)
		(stroke
			(width 0)
			(type default)
		)
		(uuid "b7cad76b-1efb-4e82-b470-27ccb0e0d135")
	)
	(bus
		(pts
			(xy 50.8 111.76) (xy 50.8 114.3)
		)
		(stroke
			(width 0)
			(type default)
		)
		(uuid "b89a5cfc-a4e9-41e8-b06c-88de64b92715")
	)
	(bus
		(pts
			(xy 50.8 69.85) (xy 50.8 106.68)
		)
		(stroke
			(width 0)
			(type default)
		)
		(uuid "b9fa52d3-3c65-4037-906a-36b84e79073b")
	)
	(wire
		(pts
			(xy 241.3 116.84) (xy 248.92 116.84)
		)
		(stroke
			(width 0)
			(type default)
		)
		(uuid "ba1aaa0b-483d-42fd-a6f3-95a457de7ce1")
	)
	(wire
		(pts
			(xy 241.3 67.31) (xy 248.92 67.31)
		)
		(stroke
			(width 0)
			(type default)
		)
		(uuid "bef0fef5-c138-4b46-ad13-c0fe908dfe4a")
	)
	(wire
		(pts
			(xy 157.48 66.04) (xy 165.1 66.04)
		)
		(stroke
			(width 0)
			(type default)
		)
		(uuid "c1cf6149-2a65-4094-95da-8af342b57100")
	)
	(wire
		(pts
			(xy 157.48 125.73) (xy 165.1 125.73)
		)
		(stroke
			(width 0)
			(type default)
		)
		(uuid "c1db25a1-1fb1-439a-8e1a-9820f416ce61")
	)
	(wire
		(pts
			(xy 241.3 114.3) (xy 248.92 114.3)
		)
		(stroke
			(width 0)
			(type default)
		)
		(uuid "c27281c1-1c2b-4b10-ae43-048094c6d47d")
	)
	(wire
		(pts
			(xy 157.48 113.03) (xy 165.1 113.03)
		)
		(stroke
			(width 0)
			(type default)
		)
		(uuid "c30fc747-16ee-4c3a-87ed-2b421384a48e")
	)
	(bus
		(pts
			(xy 251.46 59.69) (xy 251.46 62.23)
		)
		(stroke
			(width 0)
			(type default)
		)
		(uuid "c568bfa5-09dd-4a59-a636-1fb70f08702e")
	)
	(wire
		(pts
			(xy 157.48 58.42) (xy 165.1 58.42)
		)
		(stroke
			(width 0)
			(type default)
		)
		(uuid "c675c0a6-2eaf-4468-aa45-b0e8d183afba")
	)
	(bus
		(pts
			(xy 167.64 118.11) (xy 167.64 120.65)
		)
		(stroke
			(width 0)
			(type default)
		)
		(uuid "c7df1863-3c9a-4cd9-824a-f5afd9daab48")
	)
	(wire
		(pts
			(xy 157.48 63.5) (xy 165.1 63.5)
		)
		(stroke
			(width 0)
			(type default)
		)
		(uuid "cdaf5042-ecbe-4ac3-94e7-096b9de20dad")
	)
	(bus
		(pts
			(xy 167.64 113.03) (xy 167.64 115.57)
		)
		(stroke
			(width 0)
			(type default)
		)
		(uuid "cfe438e6-4d39-431d-9cf5-062aa5367360")
	)
	(wire
		(pts
			(xy 157.48 115.57) (xy 165.1 115.57)
		)
		(stroke
			(width 0)
			(type default)
		)
		(uuid "d0cb22c0-4204-440f-ab86-efb71b93de90")
	)
	(wire
		(pts
			(xy 241.3 57.15) (xy 248.92 57.15)
		)
		(stroke
			(width 0)
			(type default)
		)
		(uuid "d91751e0-6e68-4dcd-ab5a-fa88140fa10c")
	)
	(wire
		(pts
			(xy 157.48 68.58) (xy 165.1 68.58)
		)
		(stroke
			(width 0)
			(type default)
		)
		(uuid "ddb9823f-6feb-4ca2-b269-571ed35dd1bc")
	)
	(bus
		(pts
			(xy 50.8 106.68) (xy 50.8 109.22)
		)
		(stroke
			(width 0)
			(type default)
		)
		(uuid "dde186a7-5bd2-471b-897f-683040865191")
	)
	(wire
		(pts
			(xy 157.48 118.11) (xy 165.1 118.11)
		)
		(stroke
			(width 0)
			(type default)
		)
		(uuid "e2589b0b-905d-4193-aece-e8043ff0e613")
	)
	(bus
		(pts
			(xy 167.64 55.88) (xy 167.64 58.42)
		)
		(stroke
			(width 0)
			(type default)
		)
		(uuid "e60b96ab-1409-4a27-bd90-190f2b2ad0da")
	)
	(wire
		(pts
			(xy 241.3 124.46) (xy 248.92 124.46)
		)
		(stroke
			(width 0)
			(type default)
		)
		(uuid "e60f66bb-4b7c-42ce-bd25-9d0c540576bc")
	)
	(bus
		(pts
			(xy 167.64 120.65) (xy 167.64 123.19)
		)
		(stroke
			(width 0)
			(type default)
		)
		(uuid "e6836043-999c-4455-a458-7cdd98979e9a")
	)
	(wire
		(pts
			(xy 157.48 120.65) (xy 165.1 120.65)
		)
		(stroke
			(width 0)
			(type default)
		)
		(uuid "e9e04301-9cff-4daa-b54b-f5e8d60985f8")
	)
	(bus
		(pts
			(xy 251.46 52.07) (xy 257.81 52.07)
		)
		(stroke
			(width 0)
			(type default)
		)
		(uuid "ed52dcc4-5ed0-4f17-a663-182c6c076828")
	)
	(bus
		(pts
			(xy 50.8 119.38) (xy 50.8 121.92)
		)
		(stroke
			(width 0)
			(type default)
		)
		(uuid "ee01ed70-762d-4d68-b1b1-76358d5c86f6")
	)
	(bus
		(pts
			(xy 50.8 67.31) (xy 50.8 69.85)
		)
		(stroke
			(width 0)
			(type default)
		)
		(uuid "ee076397-1d77-44d1-b7b4-759575e70bf4")
	)
	(bus
		(pts
			(xy 167.64 115.57) (xy 167.64 118.11)
		)
		(stroke
			(width 0)
			(type default)
		)
		(uuid "ee6f292a-2da3-4420-b12f-9a3595882c26")
	)
	(wire
		(pts
			(xy 157.48 55.88) (xy 165.1 55.88)
		)
		(stroke
			(width 0)
			(type default)
		)
		(uuid "eed610fc-e417-4a29-ac71-684390e082ee")
	)
	(bus
		(pts
			(xy 251.46 52.07) (xy 251.46 54.61)
		)
		(stroke
			(width 0)
			(type default)
		)
		(uuid "f0cd6fc3-d209-497b-81b9-1d32dac2c3cc")
	)
	(wire
		(pts
			(xy 241.3 54.61) (xy 248.92 54.61)
		)
		(stroke
			(width 0)
			(type default)
		)
		(uuid "f952480c-8bc4-4729-8d3f-e72c2bf68c41")
	)
	(wire
		(pts
			(xy 53.34 62.23) (xy 62.23 62.23)
		)
		(stroke
			(width 0)
			(type default)
		)
		(uuid "ff03dec8-c50a-4ae3-b0af-ce107673034e")
	)
	(label "DATA7"
		(at 157.48 73.66 0)
		(effects
			(font
				(size 1.27 1.27)
			)
			(justify left bottom)
		)
		(uuid "00b21e55-b161-4987-b48a-222d36f3c77e")
	)
	(label "AD7"
		(at 87.63 72.39 0)
		(effects
			(font
				(size 1.27 1.27)
			)
			(justify left bottom)
		)
		(uuid "03029ece-91ca-4d34-861e-f540b2a0295c")
	)
	(label "AD1"
		(at 132.08 58.42 180)
		(effects
			(font
				(size 1.27 1.27)
			)
			(justify right bottom)
		)
		(uuid "04e30feb-d03d-47ac-8b52-74f6608fdd60")
	)
	(label "DATA4"
		(at 157.48 66.04 0)
		(effects
			(font
				(size 1.27 1.27)
			)
			(justify left bottom)
		)
		(uuid "0717ce10-7657-4688-81ae-ccc32d77336c")
	)
	(label "DATA3"
		(at 53.34 62.23 0)
		(effects
			(font
				(size 1.27 1.27)
			)
			(justify left bottom)
		)
		(uuid "08c80031-cad4-45c0-8dc3-3fd01e6b9add")
	)
	(label "AD13"
		(at 87.63 121.92 0)
		(effects
			(font
				(size 1.27 1.27)
			)
			(justify left bottom)
		)
		(uuid "0c996faa-951e-4044-8028-a5af0772c076")
	)
	(label "DATA2"
		(at 157.48 115.57 0)
		(effects
			(font
				(size 1.27 1.27)
			)
			(justify left bottom)
		)
		(uuid "12474776-a0f2-4386-83f4-47cf1e93da05")
	)
	(label "AD6"
		(at 132.08 71.12 180)
		(effects
			(font
				(size 1.27 1.27)
			)
			(justify right bottom)
		)
		(uuid "1445743e-043e-42cd-b709-cf12f70cf484")
	)
	(label "OUT12"
		(at 241.3 119.38 0)
		(effects
			(font
				(size 1.27 1.27)
			)
			(justify left bottom)
		)
		(uuid "1555539b-41f5-4b7f-b2ed-bd9f5eb452f0")
	)
	(label "OUT6"
		(at 241.3 69.85 0)
		(effects
			(font
				(size 1.27 1.27)
			)
			(justify left bottom)
		)
		(uuid "17bfb545-46b2-427a-b535-481f25cdd757")
	)
	(label "OUT1"
		(at 241.3 57.15 0)
		(effects
			(font
				(size 1.27 1.27)
			)
			(justify left bottom)
		)
		(uuid "18b69a10-550e-4001-abb3-f77e08d714e1")
	)
	(label "OUT9"
		(at 241.3 111.76 0)
		(effects
			(font
				(size 1.27 1.27)
			)
			(justify left bottom)
		)
		(uuid "23290105-f4d1-4445-b933-210be4c4b8fc")
	)
	(label "DATA5"
		(at 157.48 123.19 0)
		(effects
			(font
				(size 1.27 1.27)
			)
			(justify left bottom)
		)
		(uuid "235cc641-9412-4b2d-9c30-c7c507116269")
	)
	(label "AD15"
		(at 132.08 128.27 180)
		(effects
			(font
				(size 1.27 1.27)
			)
			(justify right bottom)
		)
		(uuid "24604014-1fca-49f5-993b-56e5f23cb639")
	)
	(label "AD4"
		(at 215.9 64.77 180)
		(effects
			(font
				(size 1.27 1.27)
			)
			(justify right bottom)
		)
		(uuid "27dda2db-e144-45e9-ac05-a28465a88332")
	)
	(label "DATA2"
		(at 53.34 114.3 0)
		(effects
			(font
				(size 1.27 1.27)
			)
			(justify left bottom)
		)
		(uuid "287d4862-d812-4759-a22a-019915be73cf")
	)
	(label "AD2"
		(at 132.08 60.96 180)
		(effects
			(font
				(size 1.27 1.27)
			)
			(justify right bottom)
		)
		(uuid "2de3a218-13d1-4ca0-9241-374a9dc3428c")
	)
	(label "OUT11"
		(at 241.3 116.84 0)
		(effects
			(font
				(size 1.27 1.27)
			)
			(justify left bottom)
		)
		(uuid "3041c0ab-6bf4-434d-95b6-989875c626c9")
	)
	(label "DATA7"
		(at 157.48 128.27 0)
		(effects
			(font
				(size 1.27 1.27)
			)
			(justify left bottom)
		)
		(uuid "31913f9a-32fc-4388-bd8f-ce4c396c1417")
	)
	(label "AD4"
		(at 132.08 66.04 180)
		(effects
			(font
				(size 1.27 1.27)
			)
			(justify right bottom)
		)
		(uuid "319a137b-b7a1-4eb9-b6ae-37c9c70985e4")
	)
	(label "DATA0"
		(at 157.48 55.88 0)
		(effects
			(font
				(size 1.27 1.27)
			)
			(justify left bottom)
		)
		(uuid "374cc834-2f91-4878-b06f-880b1123c98c")
	)
	(label "OUT2"
		(at 241.3 59.69 0)
		(effects
			(font
				(size 1.27 1.27)
			)
			(justify left bottom)
		)
		(uuid "3864f9bb-262f-443d-ab8f-1efc01365b52")
	)
	(label "AD8"
		(at 87.63 109.22 0)
		(effects
			(font
				(size 1.27 1.27)
			)
			(justify left bottom)
		)
		(uuid "3ed712bd-3965-45d1-ae0b-3d03cbf1ad34")
	)
	(label "OUT14"
		(at 241.3 124.46 0)
		(effects
			(font
				(size 1.27 1.27)
			)
			(justify left bottom)
		)
		(uuid "405d3dae-371a-4a84-8a08-af4c52680175")
	)
	(label "AD5"
		(at 132.08 68.58 180)
		(effects
			(font
				(size 1.27 1.27)
			)
			(justify right bottom)
		)
		(uuid "40e3f07e-0904-44ff-a15f-a93c53181b89")
	)
	(label "AD3"
		(at 215.9 62.23 180)
		(effects
			(font
				(size 1.27 1.27)
			)
			(justify right bottom)
		)
		(uuid "438301c4-e770-4f85-88a5-a49743c3c50c")
	)
	(label "OUT10"
		(at 241.3 114.3 0)
		(effects
			(font
				(size 1.27 1.27)
			)
			(justify left bottom)
		)
		(uuid "443760c6-afc9-4bca-8187-0c236909da2e")
	)
	(label "OUT15"
		(at 241.3 127 0)
		(effects
			(font
				(size 1.27 1.27)
			)
			(justify left bottom)
		)
		(uuid "463836c5-def4-4130-8aef-42dd03d84a8f")
	)
	(label "DATA7"
		(at 53.34 72.39 0)
		(effects
			(font
				(size 1.27 1.27)
			)
			(justify left bottom)
		)
		(uuid "48a316c4-0b3f-463e-8898-da44ff475651")
	)
	(label "DATA3"
		(at 157.48 63.5 0)
		(effects
			(font
				(size 1.27 1.27)
			)
			(justify left bottom)
		)
		(uuid "48fd2265-779c-40bb-8ed5-955b8cffb5af")
	)
	(label "OUT5"
		(at 241.3 67.31 0)
		(effects
			(font
				(size 1.27 1.27)
			)
			(justify left bottom)
		)
		(uuid "4902e987-4009-41bc-b768-c32f162398d2")
	)
	(label "AD3"
		(at 87.63 62.23 0)
		(effects
			(font
				(size 1.27 1.27)
			)
			(justify left bottom)
		)
		(uuid "49f137a8-c237-4a77-9b97-a5b198521c34")
	)
	(label "AD1"
		(at 87.63 57.15 0)
		(effects
			(font
				(size 1.27 1.27)
			)
			(justify left bottom)
		)
		(uuid "4fd48363-e25a-4af9-b6c6-f884c9a5b92c")
	)
	(label "DATA5"
		(at 157.48 68.58 0)
		(effects
			(font
				(size 1.27 1.27)
			)
			(justify left bottom)
		)
		(uuid "4ff1033f-a6e3-42de-acd7-5a07aae460ff")
	)
	(label "AD7"
		(at 132.08 73.66 180)
		(effects
			(font
				(size 1.27 1.27)
			)
			(justify right bottom)
		)
		(uuid "50a45e02-08fb-4e97-a9d7-9fca9ba6468f")
	)
	(label "AD5"
		(at 87.63 67.31 0)
		(effects
			(font
				(size 1.27 1.27)
			)
			(justify left bottom)
		)
		(uuid "5172fcd2-859c-4818-9545-8e2ce9c7c840")
	)
	(label "DATA7"
		(at 53.34 127 0)
		(effects
			(font
				(size 1.27 1.27)
			)
			(justify left bottom)
		)
		(uuid "5494f3bd-f3e8-4c22-ace2-dac283d42df7")
	)
	(label "OUT7"
		(at 241.3 72.39 0)
		(effects
			(font
				(size 1.27 1.27)
			)
			(justify left bottom)
		)
		(uuid "59152b4b-833c-4b79-9746-d58417476f7f")
	)
	(label "AD11"
		(at 132.08 118.11 180)
		(effects
			(font
				(size 1.27 1.27)
			)
			(justify right bottom)
		)
		(uuid "5b0dd716-e3be-411e-9621-126913f5b665")
	)
	(label "AD4"
		(at 87.63 64.77 0)
		(effects
			(font
				(size 1.27 1.27)
			)
			(justify left bottom)
		)
		(uuid "6dc18076-6ccd-4b6d-b0be-04bb438a4f4c")
	)
	(label "DATA0"
		(at 157.48 110.49 0)
		(effects
			(font
				(size 1.27 1.27)
			)
			(justify left bottom)
		)
		(uuid "6fb1b203-9c39-428a-8387-f1637a306ef2")
	)
	(label "AD12"
		(at 132.08 120.65 180)
		(effects
			(font
				(size 1.27 1.27)
			)
			(justify right bottom)
		)
		(uuid "7007cf88-f432-4981-bd43-ffee3ef4076f")
	)
	(label "AD0"
		(at 215.9 54.61 180)
		(effects
			(font
				(size 1.27 1.27)
			)
			(justify right bottom)
		)
		(uuid "790373a6-075d-4d35-8f53-452384ed6e73")
	)
	(label "AD9"
		(at 132.08 113.03 180)
		(effects
			(font
				(size 1.27 1.27)
			)
			(justify right bottom)
		)
		(uuid "79058b40-1ab5-4e1f-8184-6dda30d744f4")
	)
	(label "DATA5"
		(at 53.34 121.92 0)
		(effects
			(font
				(size 1.27 1.27)
			)
			(justify left bottom)
		)
		(uuid "79a3d0ee-6a6d-466d-9da1-476457748b9c")
	)
	(label "OUT8"
		(at 241.3 109.22 0)
		(effects
			(font
				(size 1.27 1.27)
			)
			(justify left bottom)
		)
		(uuid "7ad8d94f-6c0a-49e6-9d95-8bd2cfb356b5")
	)
	(label "DATA6"
		(at 157.48 71.12 0)
		(effects
			(font
				(size 1.27 1.27)
			)
			(justify left bottom)
		)
		(uuid "7bc0cc35-6228-4f9f-be65-680a2267a185")
	)
	(label "AD5"
		(at 215.9 67.31 180)
		(effects
			(font
				(size 1.27 1.27)
			)
			(justify right bottom)
		)
		(uuid "81bde04a-cab5-4824-a03e-8e676cbb40ba")
	)
	(label "AD6"
		(at 87.63 69.85 0)
		(effects
			(font
				(size 1.27 1.27)
			)
			(justify left bottom)
		)
		(uuid "844688fb-21a5-4b09-a01f-788af8b97a99")
	)
	(label "AD13"
		(at 215.9 121.92 180)
		(effects
			(font
				(size 1.27 1.27)
			)
			(justify right bottom)
		)
		(uuid "854ad7c1-3059-45fe-b0d6-7bfad36be0cf")
	)
	(label "DATA6"
		(at 53.34 69.85 0)
		(effects
			(font
				(size 1.27 1.27)
			)
			(justify left bottom)
		)
		(uuid "85e0c8df-5993-4a67-8e7a-65535ac88ef9")
	)
	(label "DATA2"
		(at 53.34 59.69 0)
		(effects
			(font
				(size 1.27 1.27)
			)
			(justify left bottom)
		)
		(uuid "86d7ebff-0dcb-4b31-a7f6-c2bb90482ec3")
	)
	(label "DATA1"
		(at 53.34 111.76 0)
		(effects
			(font
				(size 1.27 1.27)
			)
			(justify left bottom)
		)
		(uuid "8afcb535-874d-40dd-b9c8-78fd54fafc41")
	)
	(label "AD11"
		(at 215.9 116.84 180)
		(effects
			(font
				(size 1.27 1.27)
			)
			(justify right bottom)
		)
		(uuid "8bcf9055-4be0-4909-a03f-2d153aa5d207")
	)
	(label "AD7"
		(at 215.9 72.39 180)
		(effects
			(font
				(size 1.27 1.27)
			)
			(justify right bottom)
		)
		(uuid "99ccf8c8-ff46-41d6-a51d-22662e9730e7")
	)
	(label "DATA3"
		(at 157.48 118.11 0)
		(effects
			(font
				(size 1.27 1.27)
			)
			(justify left bottom)
		)
		(uuid "9a155fd1-0fff-48b7-a381-3d53d117fa11")
	)
	(label "OUT4"
		(at 241.3 64.77 0)
		(effects
			(font
				(size 1.27 1.27)
			)
			(justify left bottom)
		)
		(uuid "9c63ea6e-10a4-4e81-9b6c-f922e266adb8")
	)
	(label "DATA4"
		(at 157.48 120.65 0)
		(effects
			(font
				(size 1.27 1.27)
			)
			(justify left bottom)
		)
		(uuid "9cf59d25-7762-4c2b-b359-fa3c7a18e9a1")
	)
	(label "DATA0"
		(at 53.34 54.61 0)
		(effects
			(font
				(size 1.27 1.27)
			)
			(justify left bottom)
		)
		(uuid "a1f1fcb2-a14f-4ee1-a2c3-ffe8658265c1")
	)
	(label "AD10"
		(at 215.9 114.3 180)
		(effects
			(font
				(size 1.27 1.27)
			)
			(justify right bottom)
		)
		(uuid "a355d5fe-a0aa-4cdb-9db9-5dc02a44f90a")
	)
	(label "AD2"
		(at 87.63 59.69 0)
		(effects
			(font
				(size 1.27 1.27)
			)
			(justify left bottom)
		)
		(uuid "a8f658b4-8cc1-414c-ab03-ffbd79b0b56d")
	)
	(label "AD3"
		(at 132.08 63.5 180)
		(effects
			(font
				(size 1.27 1.27)
			)
			(justify right bottom)
		)
		(uuid "a955877a-0957-470f-a805-35c61b4a951c")
	)
	(label "DATA2"
		(at 157.48 60.96 0)
		(effects
			(font
				(size 1.27 1.27)
			)
			(justify left bottom)
		)
		(uuid "aab124f7-9b2f-418e-85de-12997a3deaae")
	)
	(label "AD9"
		(at 87.63 111.76 0)
		(effects
			(font
				(size 1.27 1.27)
			)
			(justify left bottom)
		)
		(uuid "aeab0a96-13f5-49cc-b9e8-8584db633ada")
	)
	(label "AD13"
		(at 132.08 123.19 180)
		(effects
			(font
				(size 1.27 1.27)
			)
			(justify right bottom)
		)
		(uuid "af5654db-dc4b-41d6-8b7f-d566b1abc8fa")
	)
	(label "AD9"
		(at 215.9 111.76 180)
		(effects
			(font
				(size 1.27 1.27)
			)
			(justify right bottom)
		)
		(uuid "af8cc09b-a086-416f-b4f0-5dd3cc193afc")
	)
	(label "OUT13"
		(at 241.3 121.92 0)
		(effects
			(font
				(size 1.27 1.27)
			)
			(justify left bottom)
		)
		(uuid "afab25e8-8a6e-4386-9491-ba671e0983ed")
	)
	(label "AD15"
		(at 215.9 127 180)
		(effects
			(font
				(size 1.27 1.27)
			)
			(justify right bottom)
		)
		(uuid "b21cca55-64b5-4ec2-814f-876275b11bcf")
	)
	(label "AD12"
		(at 87.63 119.38 0)
		(effects
			(font
				(size 1.27 1.27)
			)
			(justify left bottom)
		)
		(uuid "b437def0-4437-434c-8b5b-7425ac350b3a")
	)
	(label "OUT0"
		(at 241.3 54.61 0)
		(effects
			(font
				(size 1.27 1.27)
			)
			(justify left bottom)
		)
		(uuid "be74a465-387e-4743-b67a-b678e7ec569e")
	)
	(label "AD14"
		(at 132.08 125.73 180)
		(effects
			(font
				(size 1.27 1.27)
			)
			(justify right bottom)
		)
		(uuid "c08c8577-fac6-4b92-a472-6f9a78880eb6")
	)
	(label "AD14"
		(at 215.9 124.46 180)
		(effects
			(font
				(size 1.27 1.27)
			)
			(justify right bottom)
		)
		(uuid "c1418ac7-f0e7-49aa-83b9-b9fde92ded68")
	)
	(label "AD10"
		(at 132.08 115.57 180)
		(effects
			(font
				(size 1.27 1.27)
			)
			(justify right bottom)
		)
		(uuid "c17a1893-d18d-4a0d-bd94-4a163156ab64")
	)
	(label "AD15"
		(at 87.63 127 0)
		(effects
			(font
				(size 1.27 1.27)
			)
			(justify left bottom)
		)
		(uuid "c23b9489-53e9-4098-8186-41c32a010b82")
	)
	(label "AD12"
		(at 215.9 119.38 180)
		(effects
			(font
				(size 1.27 1.27)
			)
			(justify right bottom)
		)
		(uuid "c26551c2-0b61-4599-82f9-668a68c378e3")
	)
	(label "AD14"
		(at 87.63 124.46 0)
		(effects
			(font
				(size 1.27 1.27)
			)
			(justify left bottom)
		)
		(uuid "c2be49a3-2e3c-470c-b9fa-6113eb83e72a")
	)
	(label "AD11"
		(at 87.63 116.84 0)
		(effects
			(font
				(size 1.27 1.27)
			)
			(justify left bottom)
		)
		(uuid "c6c37697-fd1f-4ece-b909-da751206c94b")
	)
	(label "DATA4"
		(at 53.34 64.77 0)
		(effects
			(font
				(size 1.27 1.27)
			)
			(justify left bottom)
		)
		(uuid "c77593f6-3fee-4f6c-83e9-1c7f5aca11ea")
	)
	(label "AD2"
		(at 215.9 59.69 180)
		(effects
			(font
				(size 1.27 1.27)
			)
			(justify right bottom)
		)
		(uuid "c7b3d421-3f20-4e6c-98e9-4b76025e4c36")
	)
	(label "DATA6"
		(at 157.48 125.73 0)
		(effects
			(font
				(size 1.27 1.27)
			)
			(justify left bottom)
		)
		(uuid "c8ea423b-a2ca-4d29-b08d-7a8978972aca")
	)
	(label "OUT3"
		(at 241.3 62.23 0)
		(effects
			(font
				(size 1.27 1.27)
			)
			(justify left bottom)
		)
		(uuid "c9bb867e-7801-43e4-817f-a1803b69e68e")
	)
	(label "AD6"
		(at 215.9 69.85 180)
		(effects
			(font
				(size 1.27 1.27)
			)
			(justify right bottom)
		)
		(uuid "d1b45b03-9988-4da4-97db-872a99295b24")
	)
	(label "DATA1"
		(at 157.48 58.42 0)
		(effects
			(font
				(size 1.27 1.27)
			)
			(justify left bottom)
		)
		(uuid "d31e6d00-6a25-47ec-b4d2-370bd90327b1")
	)
	(label "DATA1"
		(at 53.34 57.15 0)
		(effects
			(font
				(size 1.27 1.27)
			)
			(justify left bottom)
		)
		(uuid "d4db1e8e-9635-48fd-8583-9cdc04e43fc7")
	)
	(label "AD0"
		(at 132.08 55.88 180)
		(effects
			(font
				(size 1.27 1.27)
			)
			(justify right bottom)
		)
		(uuid "d8321192-0de0-4ad9-b8e5-b2cf9515139b")
	)
	(label "AD10"
		(at 87.63 114.3 0)
		(effects
			(font
				(size 1.27 1.27)
			)
			(justify left bottom)
		)
		(uuid "d9050001-dd14-4cbd-84e1-acd2d23d24ee")
	)
	(label "DATA4"
		(at 53.34 119.38 0)
		(effects
			(font
				(size 1.27 1.27)
			)
			(justify left bottom)
		)
		(uuid "dc03b55d-66ac-4352-8fe3-e1de0b0ebf8d")
	)
	(label "DATA6"
		(at 53.34 124.46 0)
		(effects
			(font
				(size 1.27 1.27)
			)
			(justify left bottom)
		)
		(uuid "dc208b71-186e-487b-9549-66ecaabba461")
	)
	(label "DATA1"
		(at 157.48 113.03 0)
		(effects
			(font
				(size 1.27 1.27)
			)
			(justify left bottom)
		)
		(uuid "dd4a443d-6e82-43c8-be60-050bd6b98d8f")
	)
	(label "DATA0"
		(at 53.34 109.22 0)
		(effects
			(font
				(size 1.27 1.27)
			)
			(justify left bottom)
		)
		(uuid "e8f9c0d1-54db-430c-b544-322bf9b72ae5")
	)
	(label "AD1"
		(at 215.9 57.15 180)
		(effects
			(font
				(size 1.27 1.27)
			)
			(justify right bottom)
		)
		(uuid "e993bf9e-b660-4757-be15-036b37c77670")
	)
	(label "AD8"
		(at 215.9 109.22 180)
		(effects
			(font
				(size 1.27 1.27)
			)
			(justify right bottom)
		)
		(uuid "f034cc5a-7e2f-4d6a-820f-45e740aeb110")
	)
	(label "AD8"
		(at 132.08 110.49 180)
		(effects
			(font
				(size 1.27 1.27)
			)
			(justify right bottom)
		)
		(uuid "f11eb7f5-6871-4b88-8285-c5beccca95f5")
	)
	(label "DATA3"
		(at 53.34 116.84 0)
		(effects
			(font
				(size 1.27 1.27)
			)
			(justify left bottom)
		)
		(uuid "f8f3210c-7217-400b-af9d-7ec90edc77a3")
	)
	(label "DATA5"
		(at 53.34 67.31 0)
		(effects
			(font
				(size 1.27 1.27)
			)
			(justify left bottom)
		)
		(uuid "fae887f8-16ef-42a0-a37b-41f092bef335")
	)
	(label "AD0"
		(at 87.63 54.61 0)
		(effects
			(font
				(size 1.27 1.27)
			)
			(justify left bottom)
		)
		(uuid "fcc3d521-c2b6-483e-97f6-74f8a2f4000d")
	)
	(hierarchical_label "busses_hi-Z"
		(shape input)
		(at 132.08 78.74 180)
		(effects
			(font
				(size 1.27 1.27)
			)
			(justify right)
		)
		(uuid "002d8173-c022-4afa-b4cc-124e7be78640")
	)
	(hierarchical_label "busses_hi-Z"
		(shape input)
		(at 132.08 133.35 180)
		(effects
			(font
				(size 1.27 1.27)
			)
			(justify right)
		)
		(uuid "0268520d-5006-4c8d-8e82-daa4fb312f53")
	)
	(hierarchical_label "busses_hi-Z"
		(shape input)
		(at 215.9 132.08 180)
		(effects
			(font
				(size 1.27 1.27)
			)
			(justify right)
		)
		(uuid "0db1588c-c437-4ca8-9be4-513b149dbc7e")
	)
	(hierarchical_label "busses_hi-Z"
		(shape input)
		(at 215.9 77.47 180)
		(effects
			(font
				(size 1.27 1.27)
			)
			(justify right)
		)
		(uuid "1261ef71-ca18-4c09-b4ce-0af2c1f0ec6e")
	)
	(hierarchical_label "HAD_{write}"
		(shape input)
		(at 62.23 132.08 180)
		(effects
			(font
				(size 1.27 1.27)
			)
			(justify right)
		)
		(uuid "312eccac-f48d-4ef0-ad7f-89c4500262ae")
	)
	(hierarchical_label "~{AD_{OE}}"
		(shape input)
		(at 195.58 80.01 180)
		(effects
			(font
				(size 1.27 1.27)
			)
			(justify right)
		)
		(uuid "4f959425-5446-4176-9c49-6fae0f01f4b2")
	)
	(hierarchical_label "OUT[15..0]"
		(shape tri_state)
		(at 257.81 52.07 0)
		(effects
			(font
				(size 1.27 1.27)
			)
			(justify left)
		)
		(uuid "6818c5fc-f447-49b0-bb1e-fac3e2f30a93")
	)
	(hierarchical_label "~{HAD_{OE}}"
		(shape input)
		(at 132.08 135.89 180)
		(effects
			(font
				(size 1.27 1.27)
			)
			(justify right)
		)
		(uuid "97b6a912-a55e-4377-8001-af2664a1dea2")
	)
	(hierarchical_label "LAD_{write}"
		(shape input)
		(at 62.23 77.47 180)
		(effects
			(font
				(size 1.27 1.27)
			)
			(justify right)
		)
		(uuid "9833dc92-8431-4e27-80e5-37fb7c3eb958")
	)
	(hierarchical_label "DATA[7..0]"
		(shape bidirectional)
		(at 173.99 53.34 0)
		(effects
			(font
				(size 1.27 1.27)
			)
			(justify left)
		)
		(uuid "c1514b34-cdff-44d3-8b04-fe863adc8c7f")
	)
	(hierarchical_label "~{LAD_{OE}}"
		(shape input)
		(at 132.08 81.28 180)
		(effects
			(font
				(size 1.27 1.27)
			)
			(justify right)
		)
		(uuid "d2ca5421-f495-4ec7-91f4-c4776261bfb6")
	)
	(hierarchical_label "DATA[7..0]"
		(shape bidirectional)
		(at 45.72 52.07 180)
		(effects
			(font
				(size 1.27 1.27)
			)
			(justify right)
		)
		(uuid "e8f86c9a-e63e-4bcb-a6fc-4a5388b410be")
	)
	(symbol
		(lib_id "power:GND")
		(at 74.93 87.63 0)
		(unit 1)
		(exclude_from_sim no)
		(in_bom yes)
		(on_board yes)
		(dnp no)
		(fields_autoplaced yes)
		(uuid "18e7465a-b72a-4c53-a178-78ac91a126b3")
		(property "Reference" "#PWR0143"
			(at 74.93 93.98 0)
			(effects
				(font
					(size 1.27 1.27)
				)
				(hide yes)
			)
		)
		(property "Value" "GND"
			(at 74.93 92.71 0)
			(effects
				(font
					(size 1.27 1.27)
				)
			)
		)
		(property "Footprint" ""
			(at 74.93 87.63 0)
			(effects
				(font
					(size 1.27 1.27)
				)
				(hide yes)
			)
		)
		(property "Datasheet" ""
			(at 74.93 87.63 0)
			(effects
				(font
					(size 1.27 1.27)
				)
				(hide yes)
			)
		)
		(property "Description" "Power symbol creates a global label with name \"GND\" , ground"
			(at 74.93 87.63 0)
			(effects
				(font
					(size 1.27 1.27)
				)
				(hide yes)
			)
		)
		(pin "1"
			(uuid "57a095c2-837d-49c2-a316-e741253b106f")
		)
		(instances
			(project "computer"
				(path "/dd5684ed-67bf-48ac-b100-c627e6a76201/de062a8b-f093-4748-b0cd-18e8bd76b22a/74dc8d37-c236-4aa5-809b-b19699bd268d"
					(reference "#PWR0143")
					(unit 1)
				)
			)
		)
	)
	(symbol
		(lib_id "74xx:74LS541")
		(at 228.6 121.92 0)
		(unit 1)
		(exclude_from_sim no)
		(in_bom yes)
		(on_board yes)
		(dnp no)
		(uuid "2f25fffc-c895-405d-8e0d-2d7fc9ba4b7b")
		(property "Reference" "U15"
			(at 226.06 127 0)
			(effects
				(font
					(size 1.27 1.27)
				)
				(justify left)
			)
		)
		(property "Value" "HC541"
			(at 226.06 129.54 0)
			(effects
				(font
					(size 1.27 1.27)
				)
				(justify left)
			)
		)
		(property "Footprint" "Package_DIP:DIP-20_W7.62mm"
			(at 228.6 121.92 0)
			(effects
				(font
					(size 1.27 1.27)
				)
				(hide yes)
			)
		)
		(property "Datasheet" "http://www.ti.com/lit/gpn/sn74LS541"
			(at 228.6 121.92 0)
			(effects
				(font
					(size 1.27 1.27)
				)
				(hide yes)
			)
		)
		(property "Description" ""
			(at 228.6 121.92 0)
			(effects
				(font
					(size 1.27 1.27)
				)
				(hide yes)
			)
		)
		(pin "1"
			(uuid "bb9bb7b6-5718-4a29-8a03-55c145cc2897")
		)
		(pin "10"
			(uuid "da607c82-7516-47fb-9931-691341664e86")
		)
		(pin "11"
			(uuid "d116b635-f18f-4b6d-a1e3-a55a3ed5a260")
		)
		(pin "12"
			(uuid "60ccf872-8363-4753-8bc6-cacf6e82911c")
		)
		(pin "13"
			(uuid "5febfa46-98fa-46f1-a915-09eef0f44efd")
		)
		(pin "14"
			(uuid "2ee913c2-8efa-4c0b-8d00-56f788fb4672")
		)
		(pin "15"
			(uuid "05450bad-ed99-45b5-9aa0-18f0f7309adf")
		)
		(pin "16"
			(uuid "899451ff-73e4-4481-8452-6f3ddf9e33c3")
		)
		(pin "17"
			(uuid "8c37b26c-77eb-47f3-a04d-93c89a6e1306")
		)
		(pin "18"
			(uuid "526e8f4b-34b8-4b79-8d14-ebb3b27f1d9a")
		)
		(pin "19"
			(uuid "debc1adc-62f4-4146-9b2a-62dcf1a65f56")
		)
		(pin "2"
			(uuid "cc5dce08-471b-434c-9fcf-6e47609acf28")
		)
		(pin "20"
			(uuid "3ac41f33-f948-4b2f-a84e-9c10e233d3d2")
		)
		(pin "3"
			(uuid "2a7ddaa2-dcad-4d94-80fd-56e89480fcd8")
		)
		(pin "4"
			(uuid "2b31ff5d-9abe-4ad4-87ee-9aa07fe6d138")
		)
		(pin "5"
			(uuid "0e12075c-0bb6-4f63-a81f-d55441d5e794")
		)
		(pin "6"
			(uuid "c49653ac-c3fa-42b8-a2db-ab4ef04679fd")
		)
		(pin "7"
			(uuid "4155c0c9-ca43-48fe-84b0-455a666160a9")
		)
		(pin "8"
			(uuid "2df13594-02a3-44fc-b26e-1cec30795851")
		)
		(pin "9"
			(uuid "582f220f-a501-49c3-842e-35e53b4b4d1b")
		)
		(instances
			(project "computer"
				(path "/dd5684ed-67bf-48ac-b100-c627e6a76201/de062a8b-f093-4748-b0cd-18e8bd76b22a/74dc8d37-c236-4aa5-809b-b19699bd268d"
					(reference "U15")
					(unit 1)
				)
			)
		)
	)
	(symbol
		(lib_id "74xx:74LS541")
		(at 228.6 67.31 0)
		(unit 1)
		(exclude_from_sim no)
		(in_bom yes)
		(on_board yes)
		(dnp no)
		(uuid "32cc7f37-8008-43a9-9b91-b3c2b1757933")
		(property "Reference" "U13"
			(at 226.06 72.39 0)
			(effects
				(font
					(size 1.27 1.27)
				)
				(justify left)
			)
		)
		(property "Value" "HC541"
			(at 226.06 74.93 0)
			(effects
				(font
					(size 1.27 1.27)
				)
				(justify left)
			)
		)
		(property "Footprint" "Package_DIP:DIP-20_W7.62mm"
			(at 228.6 67.31 0)
			(effects
				(font
					(size 1.27 1.27)
				)
				(hide yes)
			)
		)
		(property "Datasheet" "http://www.ti.com/lit/gpn/sn74LS541"
			(at 228.6 67.31 0)
			(effects
				(font
					(size 1.27 1.27)
				)
				(hide yes)
			)
		)
		(property "Description" ""
			(at 228.6 67.31 0)
			(effects
				(font
					(size 1.27 1.27)
				)
				(hide yes)
			)
		)
		(pin "1"
			(uuid "8a2d4048-cbfa-49fa-a90f-baf3bc397de4")
		)
		(pin "10"
			(uuid "5e0c2481-77c0-41b1-8fe7-4e4edef82e4f")
		)
		(pin "11"
			(uuid "d446a50d-2ed5-42bf-9958-35d66c025cc6")
		)
		(pin "12"
			(uuid "d5f90783-1e5c-4692-8336-5fda8de0068e")
		)
		(pin "13"
			(uuid "ffbfccf0-b9de-4e0c-a5e7-481cfb22360f")
		)
		(pin "14"
			(uuid "e0c861ec-9ef2-4217-8589-5dec7fb42e13")
		)
		(pin "15"
			(uuid "33b93bf4-a879-43ac-bec1-24a2f0f6bf36")
		)
		(pin "16"
			(uuid "673259b4-7184-40c2-835a-c8e60b67653d")
		)
		(pin "17"
			(uuid "9414cd94-3d64-4d5e-aad5-5cd373b776e0")
		)
		(pin "18"
			(uuid "b8ea8986-ced6-4a2e-a8ca-ebd620a1080c")
		)
		(pin "19"
			(uuid "d757780d-925d-4310-bbf9-69e4ccb9e2fd")
		)
		(pin "2"
			(uuid "128714b0-4769-4605-954f-05c8436607fa")
		)
		(pin "20"
			(uuid "369fc27b-0557-4479-805b-5a5f73f633bd")
		)
		(pin "3"
			(uuid "66941b80-1e8c-440a-9296-f3d3eaa7c52e")
		)
		(pin "4"
			(uuid "ebdce093-731f-419f-ba09-8f9dee601c41")
		)
		(pin "5"
			(uuid "d6512627-b122-4726-b649-ed6b38d4d1a9")
		)
		(pin "6"
			(uuid "aa43c7fb-afb5-46ac-9b49-61010a680a45")
		)
		(pin "7"
			(uuid "db92ef4f-403c-4324-8149-6113e0a7193e")
		)
		(pin "8"
			(uuid "9129b574-cbd8-46ba-96a5-d2c2ae658dbc")
		)
		(pin "9"
			(uuid "c0d77840-220c-4367-901f-679b13b819e3")
		)
		(instances
			(project "computer"
				(path "/dd5684ed-67bf-48ac-b100-c627e6a76201/de062a8b-f093-4748-b0cd-18e8bd76b22a/74dc8d37-c236-4aa5-809b-b19699bd268d"
					(reference "U13")
					(unit 1)
				)
			)
		)
	)
	(symbol
		(lib_id "power:GND")
		(at 74.93 142.24 0)
		(unit 1)
		(exclude_from_sim no)
		(in_bom yes)
		(on_board yes)
		(dnp no)
		(fields_autoplaced yes)
		(uuid "3ebcb9c1-74f0-4a05-a198-61d3a0e5be20")
		(property "Reference" "#PWR087"
			(at 74.93 148.59 0)
			(effects
				(font
					(size 1.27 1.27)
				)
				(hide yes)
			)
		)
		(property "Value" "GND"
			(at 74.93 147.32 0)
			(effects
				(font
					(size 1.27 1.27)
				)
			)
		)
		(property "Footprint" ""
			(at 74.93 142.24 0)
			(effects
				(font
					(size 1.27 1.27)
				)
				(hide yes)
			)
		)
		(property "Datasheet" ""
			(at 74.93 142.24 0)
			(effects
				(font
					(size 1.27 1.27)
				)
				(hide yes)
			)
		)
		(property "Description" "Power symbol creates a global label with name \"GND\" , ground"
			(at 74.93 142.24 0)
			(effects
				(font
					(size 1.27 1.27)
				)
				(hide yes)
			)
		)
		(pin "1"
			(uuid "55cd6b15-21c3-47ef-8e4d-10f94956fa66")
		)
		(instances
			(project "computer"
				(path "/dd5684ed-67bf-48ac-b100-c627e6a76201/de062a8b-f093-4748-b0cd-18e8bd76b22a/74dc8d37-c236-4aa5-809b-b19699bd268d"
					(reference "#PWR087")
					(unit 1)
				)
			)
		)
	)
	(symbol
		(lib_id "power:GND")
		(at 228.6 87.63 0)
		(unit 1)
		(exclude_from_sim no)
		(in_bom yes)
		(on_board yes)
		(dnp no)
		(fields_autoplaced yes)
		(uuid "3f3b0f2d-ae5d-497d-9ed5-e97c2b3486f3")
		(property "Reference" "#PWR051"
			(at 228.6 93.98 0)
			(effects
				(font
					(size 1.27 1.27)
				)
				(hide yes)
			)
		)
		(property "Value" "GND"
			(at 228.6 92.71 0)
			(effects
				(font
					(size 1.27 1.27)
				)
			)
		)
		(property "Footprint" ""
			(at 228.6 87.63 0)
			(effects
				(font
					(size 1.27 1.27)
				)
				(hide yes)
			)
		)
		(property "Datasheet" ""
			(at 228.6 87.63 0)
			(effects
				(font
					(size 1.27 1.27)
				)
				(hide yes)
			)
		)
		(property "Description" "Power symbol creates a global label with name \"GND\" , ground"
			(at 228.6 87.63 0)
			(effects
				(font
					(size 1.27 1.27)
				)
				(hide yes)
			)
		)
		(pin "1"
			(uuid "193d7c63-3971-4bef-84e1-20b49a7f6a05")
		)
		(instances
			(project "computer"
				(path "/dd5684ed-67bf-48ac-b100-c627e6a76201/de062a8b-f093-4748-b0cd-18e8bd76b22a/74dc8d37-c236-4aa5-809b-b19699bd268d"
					(reference "#PWR051")
					(unit 1)
				)
			)
		)
	)
	(symbol
		(lib_id "74xx:74HC374")
		(at 74.93 67.31 0)
		(unit 1)
		(exclude_from_sim no)
		(in_bom yes)
		(on_board yes)
		(dnp no)
		(uuid "446252db-2ccf-4099-9c32-60061b6dffa8")
		(property "Reference" "U106"
			(at 72.39 64.77 0)
			(effects
				(font
					(size 1.27 1.27)
				)
				(justify left)
			)
		)
		(property "Value" "HC374"
			(at 72.39 67.31 0)
			(effects
				(font
					(size 1.27 1.27)
				)
				(justify left)
			)
		)
		(property "Footprint" "Package_DIP:DIP-20_W7.62mm"
			(at 74.93 67.31 0)
			(effects
				(font
					(size 1.27 1.27)
				)
				(hide yes)
			)
		)
		(property "Datasheet" "https://www.ti.com/lit/ds/symlink/cd74hct374.pdf"
			(at 74.93 67.31 0)
			(effects
				(font
					(size 1.27 1.27)
				)
				(hide yes)
			)
		)
		(property "Description" ""
			(at 74.93 67.31 0)
			(effects
				(font
					(size 1.27 1.27)
				)
				(hide yes)
			)
		)
		(pin "1"
			(uuid "3f4c75d3-cd4a-4cb8-aab5-1a934e5c0ed9")
		)
		(pin "10"
			(uuid "437ea544-228c-4261-aba5-59b7dd60d541")
		)
		(pin "11"
			(uuid "7c8b14f1-358d-4752-8ad4-2181b6f09a98")
		)
		(pin "12"
			(uuid "c5165022-7d3d-4d5d-9630-e057d19ca944")
		)
		(pin "13"
			(uuid "ff4c0d94-7eaf-495e-ba68-eed7478e1ebc")
		)
		(pin "14"
			(uuid "307a7a5a-1f4b-4b09-859a-fb858c21717e")
		)
		(pin "15"
			(uuid "cff891b2-b181-4a92-82b6-343b1e891f3b")
		)
		(pin "16"
			(uuid "6005d782-0cc5-41d5-b5fc-069ae67edca6")
		)
		(pin "17"
			(uuid "61163104-59ef-4dc1-b011-5f11d516b4e7")
		)
		(pin "18"
			(uuid "a7084bf6-0fe3-4415-976e-f106b7e96fc3")
		)
		(pin "19"
			(uuid "e369e74a-29e1-4ba7-b413-09faa31c1e2b")
		)
		(pin "2"
			(uuid "55576f49-b086-40f5-818a-e43039736a41")
		)
		(pin "20"
			(uuid "c62b0a38-4c8f-4506-a1be-8c26d534aeef")
		)
		(pin "3"
			(uuid "c211a537-8ec3-40b2-b617-a857b5aaf17e")
		)
		(pin "4"
			(uuid "8b8093e9-75bc-4151-836e-b13c487dfbc6")
		)
		(pin "5"
			(uuid "8ce033fb-a31c-4bed-bb31-fb5b83085fcb")
		)
		(pin "6"
			(uuid "58518671-3a1b-48e3-b00e-5ee3d9b4a4e1")
		)
		(pin "7"
			(uuid "00377709-6d55-4933-a14d-dbfa8520be1e")
		)
		(pin "8"
			(uuid "3a0979a3-ea92-49bd-a4b0-8f3175813f7f")
		)
		(pin "9"
			(uuid "499bc3b0-902c-43da-8f3e-56b41a1d3753")
		)
		(instances
			(project "computer"
				(path "/dd5684ed-67bf-48ac-b100-c627e6a76201/de062a8b-f093-4748-b0cd-18e8bd76b22a/74dc8d37-c236-4aa5-809b-b19699bd268d"
					(reference "U106")
					(unit 1)
				)
			)
		)
	)
	(symbol
		(lib_id "74xx:74HC374")
		(at 74.93 121.92 0)
		(unit 1)
		(exclude_from_sim no)
		(in_bom yes)
		(on_board yes)
		(dnp no)
		(uuid "45f2ce5b-9207-4a20-8352-283e09471e50")
		(property "Reference" "U111"
			(at 72.39 119.38 0)
			(effects
				(font
					(size 1.27 1.27)
				)
				(justify left)
			)
		)
		(property "Value" "HC374"
			(at 72.39 121.92 0)
			(effects
				(font
					(size 1.27 1.27)
				)
				(justify left)
			)
		)
		(property "Footprint" "Package_DIP:DIP-20_W7.62mm"
			(at 74.93 121.92 0)
			(effects
				(font
					(size 1.27 1.27)
				)
				(hide yes)
			)
		)
		(property "Datasheet" "https://www.ti.com/lit/ds/symlink/cd74hct374.pdf"
			(at 74.93 121.92 0)
			(effects
				(font
					(size 1.27 1.27)
				)
				(hide yes)
			)
		)
		(property "Description" ""
			(at 74.93 121.92 0)
			(effects
				(font
					(size 1.27 1.27)
				)
				(hide yes)
			)
		)
		(pin "1"
			(uuid "2214da4f-e3b2-4028-960b-5cfa782d127a")
		)
		(pin "10"
			(uuid "17af5f72-93d8-43d8-889c-6612d663ad60")
		)
		(pin "11"
			(uuid "6c4f32e6-dd4a-4933-b32a-c7ed0028672d")
		)
		(pin "12"
			(uuid "dc660331-b794-42fe-8f30-c32ce0e3e760")
		)
		(pin "13"
			(uuid "7bd25a67-e8df-4836-9892-1fe342445a2c")
		)
		(pin "14"
			(uuid "3226c5fb-b49a-4801-8c44-b39f279c2c6c")
		)
		(pin "15"
			(uuid "0edb0393-3f3d-4a5e-9b58-614404ee9114")
		)
		(pin "16"
			(uuid "1b9b4e90-3345-41d7-94d5-acdf7a75ca5c")
		)
		(pin "17"
			(uuid "ad3a5a91-c565-44b5-a9cd-de23bfb503f9")
		)
		(pin "18"
			(uuid "01ce1c8b-faf9-4862-bd9c-d7f2da6773cb")
		)
		(pin "19"
			(uuid "fe1b4363-04bc-408b-97f5-81c7799482d8")
		)
		(pin "2"
			(uuid "8b06154e-b6cf-400f-b0d0-70c3b99ad40c")
		)
		(pin "20"
			(uuid "24350aeb-5836-473c-bdd4-1e82dcde8253")
		)
		(pin "3"
			(uuid "fa6b200c-5043-4088-9ef1-664f74fc585e")
		)
		(pin "4"
			(uuid "5c49a0ef-62f6-436a-ab99-eb410cc56b08")
		)
		(pin "5"
			(uuid "7b5e7568-7dd9-4cb1-9ecf-65af5a2398ea")
		)
		(pin "6"
			(uuid "d48e7d5d-3a9c-4bc0-83ee-c18469de4779")
		)
		(pin "7"
			(uuid "a55d8140-cf81-4ec1-ab7e-2be8b206b6e7")
		)
		(pin "8"
			(uuid "76c08f36-aeb3-4fca-b4d5-6e6de0df3cff")
		)
		(pin "9"
			(uuid "b6313efb-b3e7-4be9-9657-c195eb45271a")
		)
		(instances
			(project "computer"
				(path "/dd5684ed-67bf-48ac-b100-c627e6a76201/de062a8b-f093-4748-b0cd-18e8bd76b22a/74dc8d37-c236-4aa5-809b-b19699bd268d"
					(reference "U111")
					(unit 1)
				)
			)
		)
	)
	(symbol
		(lib_id "power:+5V")
		(at 74.93 46.99 0)
		(unit 1)
		(exclude_from_sim no)
		(in_bom yes)
		(on_board yes)
		(dnp no)
		(fields_autoplaced yes)
		(uuid "681df1fc-0bee-4316-ae50-12d8879eb2e8")
		(property "Reference" "#PWR0142"
			(at 74.93 50.8 0)
			(effects
				(font
					(size 1.27 1.27)
				)
				(hide yes)
			)
		)
		(property "Value" "+5V"
			(at 74.93 41.91 0)
			(effects
				(font
					(size 1.27 1.27)
				)
			)
		)
		(property "Footprint" ""
			(at 74.93 46.99 0)
			(effects
				(font
					(size 1.27 1.27)
				)
				(hide yes)
			)
		)
		(property "Datasheet" ""
			(at 74.93 46.99 0)
			(effects
				(font
					(size 1.27 1.27)
				)
				(hide yes)
			)
		)
		(property "Description" "Power symbol creates a global label with name \"+5V\""
			(at 74.93 46.99 0)
			(effects
				(font
					(size 1.27 1.27)
				)
				(hide yes)
			)
		)
		(pin "1"
			(uuid "f7bde619-f2c0-4c00-aef6-f51e78b5ba25")
		)
		(instances
			(project "computer"
				(path "/dd5684ed-67bf-48ac-b100-c627e6a76201/de062a8b-f093-4748-b0cd-18e8bd76b22a/74dc8d37-c236-4aa5-809b-b19699bd268d"
					(reference "#PWR0142")
					(unit 1)
				)
			)
		)
	)
	(symbol
		(lib_id "power:+5V")
		(at 144.78 102.87 0)
		(unit 1)
		(exclude_from_sim no)
		(in_bom yes)
		(on_board yes)
		(dnp no)
		(fields_autoplaced yes)
		(uuid "69a71647-5c49-4c14-af0b-44e10151263c")
		(property "Reference" "#PWR088"
			(at 144.78 106.68 0)
			(effects
				(font
					(size 1.27 1.27)
				)
				(hide yes)
			)
		)
		(property "Value" "+5V"
			(at 144.78 97.79 0)
			(effects
				(font
					(size 1.27 1.27)
				)
			)
		)
		(property "Footprint" ""
			(at 144.78 102.87 0)
			(effects
				(font
					(size 1.27 1.27)
				)
				(hide yes)
			)
		)
		(property "Datasheet" ""
			(at 144.78 102.87 0)
			(effects
				(font
					(size 1.27 1.27)
				)
				(hide yes)
			)
		)
		(property "Description" "Power symbol creates a global label with name \"+5V\""
			(at 144.78 102.87 0)
			(effects
				(font
					(size 1.27 1.27)
				)
				(hide yes)
			)
		)
		(pin "1"
			(uuid "d53778b9-c7be-4905-a04a-a2d0b43594a1")
		)
		(instances
			(project "computer"
				(path "/dd5684ed-67bf-48ac-b100-c627e6a76201/de062a8b-f093-4748-b0cd-18e8bd76b22a/74dc8d37-c236-4aa5-809b-b19699bd268d"
					(reference "#PWR088")
					(unit 1)
				)
			)
		)
	)
	(symbol
		(lib_id "74xx:74LS541")
		(at 144.78 123.19 0)
		(unit 1)
		(exclude_from_sim no)
		(in_bom yes)
		(on_board yes)
		(dnp no)
		(uuid "72495777-9b80-4593-82af-bae5c77fc439")
		(property "Reference" "U37"
			(at 142.24 128.27 0)
			(effects
				(font
					(size 1.27 1.27)
				)
				(justify left)
			)
		)
		(property "Value" "HC541"
			(at 142.24 130.81 0)
			(effects
				(font
					(size 1.27 1.27)
				)
				(justify left)
			)
		)
		(property "Footprint" "Package_DIP:DIP-20_W7.62mm"
			(at 144.78 123.19 0)
			(effects
				(font
					(size 1.27 1.27)
				)
				(hide yes)
			)
		)
		(property "Datasheet" "http://www.ti.com/lit/gpn/sn74LS541"
			(at 144.78 123.19 0)
			(effects
				(font
					(size 1.27 1.27)
				)
				(hide yes)
			)
		)
		(property "Description" ""
			(at 144.78 123.19 0)
			(effects
				(font
					(size 1.27 1.27)
				)
				(hide yes)
			)
		)
		(pin "1"
			(uuid "e292ca41-17df-4f0b-8893-21ee6bcb7f6b")
		)
		(pin "10"
			(uuid "f908a5cb-3bad-4a6d-b8b9-e8fe86d080f5")
		)
		(pin "11"
			(uuid "172b6fa8-1b67-4a99-a0f9-89559345b32e")
		)
		(pin "12"
			(uuid "3e092573-c253-45e1-9f17-4176966eb492")
		)
		(pin "13"
			(uuid "2e548679-6891-4851-82b4-f124eeffc0db")
		)
		(pin "14"
			(uuid "6a37040a-d338-416f-a181-d25ff4fac258")
		)
		(pin "15"
			(uuid "457c9c13-fa2e-4be4-8391-a532ab1dcce9")
		)
		(pin "16"
			(uuid "11e35b8e-da5d-4362-a2b6-668decb5eac5")
		)
		(pin "17"
			(uuid "b6a96b6e-5ee7-4d3d-b254-8d5a43081db5")
		)
		(pin "18"
			(uuid "9c5b5d26-cc84-4d0f-bc9a-df09392826e6")
		)
		(pin "19"
			(uuid "f7ac1198-2e71-433b-aa5b-44d8860f4b66")
		)
		(pin "2"
			(uuid "19e677a5-6c5b-4c0d-b304-ad9720d741af")
		)
		(pin "20"
			(uuid "9738ecb7-97bd-4764-adbe-fce786dbfa1c")
		)
		(pin "3"
			(uuid "d2fe090e-5024-4152-8d7c-e5a9861745af")
		)
		(pin "4"
			(uuid "032142c0-d4a8-4057-8d52-8b786772bb9f")
		)
		(pin "5"
			(uuid "2a38c80d-891f-4da0-a872-ad4e30ad9904")
		)
		(pin "6"
			(uuid "69b5afa1-2724-46a2-86e4-281f386a2f2b")
		)
		(pin "7"
			(uuid "5a79fb3c-a7f9-405c-af00-977af5e26e8e")
		)
		(pin "8"
			(uuid "e0211608-2f66-426e-a224-05d1bdee28ff")
		)
		(pin "9"
			(uuid "df674cfa-7c1d-4fb3-950f-de613de9f3ec")
		)
		(instances
			(project "computer"
				(path "/dd5684ed-67bf-48ac-b100-c627e6a76201/de062a8b-f093-4748-b0cd-18e8bd76b22a/74dc8d37-c236-4aa5-809b-b19699bd268d"
					(reference "U37")
					(unit 1)
				)
			)
		)
	)
	(symbol
		(lib_id "power:GND")
		(at 144.78 143.51 0)
		(unit 1)
		(exclude_from_sim no)
		(in_bom yes)
		(on_board yes)
		(dnp no)
		(fields_autoplaced yes)
		(uuid "84326726-b8c5-4dec-8a4b-cdf849401f26")
		(property "Reference" "#PWR089"
			(at 144.78 149.86 0)
			(effects
				(font
					(size 1.27 1.27)
				)
				(hide yes)
			)
		)
		(property "Value" "GND"
			(at 144.78 148.59 0)
			(effects
				(font
					(size 1.27 1.27)
				)
			)
		)
		(property "Footprint" ""
			(at 144.78 143.51 0)
			(effects
				(font
					(size 1.27 1.27)
				)
				(hide yes)
			)
		)
		(property "Datasheet" ""
			(at 144.78 143.51 0)
			(effects
				(font
					(size 1.27 1.27)
				)
				(hide yes)
			)
		)
		(property "Description" "Power symbol creates a global label with name \"GND\" , ground"
			(at 144.78 143.51 0)
			(effects
				(font
					(size 1.27 1.27)
				)
				(hide yes)
			)
		)
		(pin "1"
			(uuid "6ef4a41d-782e-4567-b3a8-2e779cdb31c7")
		)
		(instances
			(project "computer"
				(path "/dd5684ed-67bf-48ac-b100-c627e6a76201/de062a8b-f093-4748-b0cd-18e8bd76b22a/74dc8d37-c236-4aa5-809b-b19699bd268d"
					(reference "#PWR089")
					(unit 1)
				)
			)
		)
	)
	(symbol
		(lib_id "power:+5V")
		(at 228.6 101.6 0)
		(unit 1)
		(exclude_from_sim no)
		(in_bom yes)
		(on_board yes)
		(dnp no)
		(fields_autoplaced yes)
		(uuid "905f9e87-3804-4bd6-a1d2-dd853dba65d8")
		(property "Reference" "#PWR0101"
			(at 228.6 105.41 0)
			(effects
				(font
					(size 1.27 1.27)
				)
				(hide yes)
			)
		)
		(property "Value" "+5V"
			(at 228.6 96.52 0)
			(effects
				(font
					(size 1.27 1.27)
				)
			)
		)
		(property "Footprint" ""
			(at 228.6 101.6 0)
			(effects
				(font
					(size 1.27 1.27)
				)
				(hide yes)
			)
		)
		(property "Datasheet" ""
			(at 228.6 101.6 0)
			(effects
				(font
					(size 1.27 1.27)
				)
				(hide yes)
			)
		)
		(property "Description" "Power symbol creates a global label with name \"+5V\""
			(at 228.6 101.6 0)
			(effects
				(font
					(size 1.27 1.27)
				)
				(hide yes)
			)
		)
		(pin "1"
			(uuid "ce297bf8-7e84-4ade-b968-d8f08b95dcc8")
		)
		(instances
			(project "computer"
				(path "/dd5684ed-67bf-48ac-b100-c627e6a76201/de062a8b-f093-4748-b0cd-18e8bd76b22a/74dc8d37-c236-4aa5-809b-b19699bd268d"
					(reference "#PWR0101")
					(unit 1)
				)
			)
		)
	)
	(symbol
		(lib_id "74xx:74LS541")
		(at 144.78 68.58 0)
		(unit 1)
		(exclude_from_sim no)
		(in_bom yes)
		(on_board yes)
		(dnp no)
		(uuid "a6f7e0ce-a413-45ac-bddd-19a0a37b45ca")
		(property "Reference" "U35"
			(at 142.24 73.66 0)
			(effects
				(font
					(size 1.27 1.27)
				)
				(justify left)
			)
		)
		(property "Value" "HC541"
			(at 142.24 76.2 0)
			(effects
				(font
					(size 1.27 1.27)
				)
				(justify left)
			)
		)
		(property "Footprint" "Package_DIP:DIP-20_W7.62mm"
			(at 144.78 68.58 0)
			(effects
				(font
					(size 1.27 1.27)
				)
				(hide yes)
			)
		)
		(property "Datasheet" "http://www.ti.com/lit/gpn/sn74LS541"
			(at 144.78 68.58 0)
			(effects
				(font
					(size 1.27 1.27)
				)
				(hide yes)
			)
		)
		(property "Description" ""
			(at 144.78 68.58 0)
			(effects
				(font
					(size 1.27 1.27)
				)
				(hide yes)
			)
		)
		(pin "1"
			(uuid "59d52871-a6c1-4e77-be5f-77dfeb7aecd3")
		)
		(pin "10"
			(uuid "ddc42c44-c7fb-4e30-bf71-4cca622d5ca6")
		)
		(pin "11"
			(uuid "165952d4-28ff-46d5-adf2-d2749490cb95")
		)
		(pin "12"
			(uuid "829b2320-d479-42ac-9bca-1c81b3de3170")
		)
		(pin "13"
			(uuid "a42e68fb-0284-4cde-ab98-f4eaa784bdde")
		)
		(pin "14"
			(uuid "aa9d7c3e-4dfe-4328-8eb9-3cd27c05ffb4")
		)
		(pin "15"
			(uuid "392d1364-b41b-4192-9f88-a6484e137d0f")
		)
		(pin "16"
			(uuid "c0a59cdc-d1a7-4d82-b26b-4cc496ae82cf")
		)
		(pin "17"
			(uuid "9a8e90e8-521d-4b33-9be6-ac5b0e67ee58")
		)
		(pin "18"
			(uuid "02229b2a-524b-4a1a-aa25-017f713a2e1a")
		)
		(pin "19"
			(uuid "4d723982-c2f8-4363-9c22-df84e8d1f5da")
		)
		(pin "2"
			(uuid "5e05185f-b925-4878-a1bb-3b1907dc0404")
		)
		(pin "20"
			(uuid "4bac8365-596b-461f-a08a-b665dd37347d")
		)
		(pin "3"
			(uuid "d6e20dd7-ea9f-4ac3-b159-85f6f69c906e")
		)
		(pin "4"
			(uuid "2048a860-d6f5-48ba-9c60-959af7c2ea8e")
		)
		(pin "5"
			(uuid "fe7c9a08-8924-44b1-87a7-ac3781359daf")
		)
		(pin "6"
			(uuid "f9325d74-e389-4362-9696-294f837ea0bc")
		)
		(pin "7"
			(uuid "077f7e11-0ed7-4b9e-8a75-b34da3b40aac")
		)
		(pin "8"
			(uuid "5702f14c-c2f9-447b-bef9-a0693c787f30")
		)
		(pin "9"
			(uuid "78235f53-2a0a-4107-9e2e-e6dd0be59982")
		)
		(instances
			(project "computer"
				(path "/dd5684ed-67bf-48ac-b100-c627e6a76201/de062a8b-f093-4748-b0cd-18e8bd76b22a/74dc8d37-c236-4aa5-809b-b19699bd268d"
					(reference "U35")
					(unit 1)
				)
			)
		)
	)
	(symbol
		(lib_id "power:+5V")
		(at 74.93 101.6 0)
		(unit 1)
		(exclude_from_sim no)
		(in_bom yes)
		(on_board yes)
		(dnp no)
		(fields_autoplaced yes)
		(uuid "a7f1623c-822e-430f-aab1-cafd67b62892")
		(property "Reference" "#PWR086"
			(at 74.93 105.41 0)
			(effects
				(font
					(size 1.27 1.27)
				)
				(hide yes)
			)
		)
		(property "Value" "+5V"
			(at 74.93 96.52 0)
			(effects
				(font
					(size 1.27 1.27)
				)
			)
		)
		(property "Footprint" ""
			(at 74.93 101.6 0)
			(effects
				(font
					(size 1.27 1.27)
				)
				(hide yes)
			)
		)
		(property "Datasheet" ""
			(at 74.93 101.6 0)
			(effects
				(font
					(size 1.27 1.27)
				)
				(hide yes)
			)
		)
		(property "Description" "Power symbol creates a global label with name \"+5V\""
			(at 74.93 101.6 0)
			(effects
				(font
					(size 1.27 1.27)
				)
				(hide yes)
			)
		)
		(pin "1"
			(uuid "b50c79ee-17ab-4104-9fda-290e01a80878")
		)
		(instances
			(project "computer"
				(path "/dd5684ed-67bf-48ac-b100-c627e6a76201/de062a8b-f093-4748-b0cd-18e8bd76b22a/74dc8d37-c236-4aa5-809b-b19699bd268d"
					(reference "#PWR086")
					(unit 1)
				)
			)
		)
	)
	(symbol
		(lib_id "power:+5V")
		(at 144.78 48.26 0)
		(unit 1)
		(exclude_from_sim no)
		(in_bom yes)
		(on_board yes)
		(dnp no)
		(fields_autoplaced yes)
		(uuid "a918bbfd-3263-40bc-89ab-3dc6885478ee")
		(property "Reference" "#PWR050"
			(at 144.78 52.07 0)
			(effects
				(font
					(size 1.27 1.27)
				)
				(hide yes)
			)
		)
		(property "Value" "+5V"
			(at 144.78 43.18 0)
			(effects
				(font
					(size 1.27 1.27)
				)
			)
		)
		(property "Footprint" ""
			(at 144.78 48.26 0)
			(effects
				(font
					(size 1.27 1.27)
				)
				(hide yes)
			)
		)
		(property "Datasheet" ""
			(at 144.78 48.26 0)
			(effects
				(font
					(size 1.27 1.27)
				)
				(hide yes)
			)
		)
		(property "Description" "Power symbol creates a global label with name \"+5V\""
			(at 144.78 48.26 0)
			(effects
				(font
					(size 1.27 1.27)
				)
				(hide yes)
			)
		)
		(pin "1"
			(uuid "a7c3901f-bcc2-4534-9869-7841314a7a7f")
		)
		(instances
			(project "computer"
				(path "/dd5684ed-67bf-48ac-b100-c627e6a76201/de062a8b-f093-4748-b0cd-18e8bd76b22a/74dc8d37-c236-4aa5-809b-b19699bd268d"
					(reference "#PWR050")
					(unit 1)
				)
			)
		)
	)
	(symbol
		(lib_id "power:GND")
		(at 144.78 88.9 0)
		(unit 1)
		(exclude_from_sim no)
		(in_bom yes)
		(on_board yes)
		(dnp no)
		(fields_autoplaced yes)
		(uuid "c9f045f5-352c-40a1-89c2-46f560078f78")
		(property "Reference" "#PWR048"
			(at 144.78 95.25 0)
			(effects
				(font
					(size 1.27 1.27)
				)
				(hide yes)
			)
		)
		(property "Value" "GND"
			(at 144.78 93.98 0)
			(effects
				(font
					(size 1.27 1.27)
				)
			)
		)
		(property "Footprint" ""
			(at 144.78 88.9 0)
			(effects
				(font
					(size 1.27 1.27)
				)
				(hide yes)
			)
		)
		(property "Datasheet" ""
			(at 144.78 88.9 0)
			(effects
				(font
					(size 1.27 1.27)
				)
				(hide yes)
			)
		)
		(property "Description" "Power symbol creates a global label with name \"GND\" , ground"
			(at 144.78 88.9 0)
			(effects
				(font
					(size 1.27 1.27)
				)
				(hide yes)
			)
		)
		(pin "1"
			(uuid "51aa9b8f-bc97-4070-b849-a43ceb4cd1ce")
		)
		(instances
			(project "computer"
				(path "/dd5684ed-67bf-48ac-b100-c627e6a76201/de062a8b-f093-4748-b0cd-18e8bd76b22a/74dc8d37-c236-4aa5-809b-b19699bd268d"
					(reference "#PWR048")
					(unit 1)
				)
			)
		)
	)
	(symbol
		(lib_id "power:+5V")
		(at 228.6 46.99 0)
		(unit 1)
		(exclude_from_sim no)
		(in_bom yes)
		(on_board yes)
		(dnp no)
		(fields_autoplaced yes)
		(uuid "e2c91577-e5da-4113-a185-1d2ee2e4e44b")
		(property "Reference" "#PWR049"
			(at 228.6 50.8 0)
			(effects
				(font
					(size 1.27 1.27)
				)
				(hide yes)
			)
		)
		(property "Value" "+5V"
			(at 228.6 41.91 0)
			(effects
				(font
					(size 1.27 1.27)
				)
			)
		)
		(property "Footprint" ""
			(at 228.6 46.99 0)
			(effects
				(font
					(size 1.27 1.27)
				)
				(hide yes)
			)
		)
		(property "Datasheet" ""
			(at 228.6 46.99 0)
			(effects
				(font
					(size 1.27 1.27)
				)
				(hide yes)
			)
		)
		(property "Description" "Power symbol creates a global label with name \"+5V\""
			(at 228.6 46.99 0)
			(effects
				(font
					(size 1.27 1.27)
				)
				(hide yes)
			)
		)
		(pin "1"
			(uuid "91596605-387f-4746-b331-58dca192c914")
		)
		(instances
			(project "computer"
				(path "/dd5684ed-67bf-48ac-b100-c627e6a76201/de062a8b-f093-4748-b0cd-18e8bd76b22a/74dc8d37-c236-4aa5-809b-b19699bd268d"
					(reference "#PWR049")
					(unit 1)
				)
			)
		)
	)
	(symbol
		(lib_id "power:GND")
		(at 228.6 142.24 0)
		(unit 1)
		(exclude_from_sim no)
		(in_bom yes)
		(on_board yes)
		(dnp no)
		(fields_autoplaced yes)
		(uuid "e93f8ae2-694d-498b-b2d9-7f13f56b6fa0")
		(property "Reference" "#PWR0103"
			(at 228.6 148.59 0)
			(effects
				(font
					(size 1.27 1.27)
				)
				(hide yes)
			)
		)
		(property "Value" "GND"
			(at 228.6 147.32 0)
			(effects
				(font
					(size 1.27 1.27)
				)
			)
		)
		(property "Footprint" ""
			(at 228.6 142.24 0)
			(effects
				(font
					(size 1.27 1.27)
				)
				(hide yes)
			)
		)
		(property "Datasheet" ""
			(at 228.6 142.24 0)
			(effects
				(font
					(size 1.27 1.27)
				)
				(hide yes)
			)
		)
		(property "Description" "Power symbol creates a global label with name \"GND\" , ground"
			(at 228.6 142.24 0)
			(effects
				(font
					(size 1.27 1.27)
				)
				(hide yes)
			)
		)
		(pin "1"
			(uuid "1e7efefd-0ccf-4b0d-8840-b34438d149fd")
		)
		(instances
			(project "computer"
				(path "/dd5684ed-67bf-48ac-b100-c627e6a76201/de062a8b-f093-4748-b0cd-18e8bd76b22a/74dc8d37-c236-4aa5-809b-b19699bd268d"
					(reference "#PWR0103")
					(unit 1)
				)
			)
		)
	)
)
